Place,Name,Sex,Event,Division,WeightClassKg,Equipment,BirthYear,State,BodyweightKg,Squat1Kg,Squat2Kg,Squat3Kg,Best3SquatKg,Bench1Kg,Bench2Kg,Bench3Kg,Best3BenchKg,Deadlift1Kg,Deadlift2Kg,Deadlift3Kg,Best3DeadliftKg,TotalKg,Age,BirthDate
1,Erika Culannay,F,SBD,FR-Jr,48,Raw,2000,CA,46.6,112.5,115,117.5,117.5,57.5,60,-65,60,115,120,125,125,302.5,,
1,Tatjana Shields,F,SBD,FR-Jr,100,Raw,1999,VA,97.3,115,125,132.5,132.5,47.5,52.5,-60,52.5,145,155,165,165,350,,
1,Lesley Merkel,F,SBD,FR-Jr,67.5,Raw,2000,VA,62.6,75,82.5,92.5,92.5,47.5,-52.5,52.5,52.5,92.5,107.5,120,120,265,,
1,Leanna Trimmer,F,SBD,FR-M1a,100,Raw,1979,VA,95.1,-130,132.5,-137.5,132.5,67.5,70,77.5,77.5,135,140,147.5,147.5,357.5,,
1,Erika Culannay,F,SBD,FR-MO,48,Raw,2000,CA,46.6,112.5,115,117.5,117.5,57.5,60,-65,60,115,120,125,125,302.5,,
1,Frances Young,F,SBD,FR-MO,67.5,Raw,1985,CA,64.45,105,110,117.5,117.5,62.5,67.5,72.5,72.5,112.5,117.5,120,120,310,,
1,Erika Culannay,F,SBD,FR-O,48,Raw,2000,CA,46.6,112.5,115,117.5,117.5,57.5,60,-65,60,115,120,125,125,302.5,,
1,Victoria Agnellini,F,SBD,FR-O,56,Raw,1993,VA,55.15,75,87.5,95,95,60,65,-67.5,65,130,137.5,142.5,142.5,302.5,,
1,Jennifer Hearn,F,SBD,FR-O,75,Raw,1973,VA,71.45,92.5,107.5,-117.5,107.5,62.5,67.5,70,70,125,132.5,137.5,137.5,315,,
1,Frances Young,F,SBD,FR-O,67.5,Raw,1985,CA,64.45,105,110,117.5,117.5,62.5,67.5,72.5,72.5,112.5,117.5,120,120,310,,
1,Jessica Marshall,F,SBD,FR-O,82.5,Raw,1995,VA,76.6,125,145,-155,145,60,70,-77.5,70,125,145,152.5,152.5,367.5,,
1,Pinar Yalcin,F,SBD,FR-T3,75,Raw,2002,VA,74.4,110,117.5,-127.5,117.5,47.5,52.5,-55,52.5,135,145,152.5,152.5,322.5,,
1,Alexa Cuddy,F,SBD,FR-T3,67.5,Raw,2003,MD,63.1,110,115,-120,115,-52.5,55,57.5,57.5,115,120,125,125,297.5,,
DQ,Neljan Ace Ong,M,SBD,MR-Jr,52,Raw,1999,VA,51.25,110,117.5,125,125,-52.5,-52.5,,,162.5,167.5,-175,167.5,,,
1,Jonathan Tatman,M,SBD,MR-Jr,75,Raw,2000,VA,74.05,165,-180,190,190,115,125,-142.5,125,217.5,235,245,245,560,,
1,Seth Burman,M,SBD,MR-Jr,100,Raw,2000,VA,97.25,235,250,260,260,142.5,152.5,157.5,157.5,245,260,272.5,272.5,690,,
1,Collin Murphy,M,SBD,MR-Jr,82.5,Raw,2000,VA,81.9,200,215,222.5,222.5,120,125,130,130,230,255,265,265,617.5,,
1,Johnny Dennis,M,SBD,MR-M1b,125,Raw,1976,VA,117.05,-160,165,182.5,182.5,-120,125,-137.5,125,205,217.5,227.5,227.5,535,,
1,Charles Bramble,M,SBD,MR-M3b,100,Raw,1957,MD,94.55,70,-92.5,102.5,102.5,70,77.5,-80,77.5,125,142.5,152.5,152.5,332.5,,
1,Johnny Dennis,M,SBD,MR-MO,125,Raw,1976,VA,117.05,-160,165,182.5,182.5,-120,125,-137.5,125,205,217.5,227.5,227.5,535,,
1,Christian Landeros Galvez,M,SBD,MR-MO,82.5,Raw,1987,VA,78.7,160,165,-170,165,125,130,-132.5,130,185,190,192.5,192.5,487.5,,
DQ,Bart Fortune,M,SBD,MR-MO,82.5,Raw,1994,VA,82.5,-160,-165,-165,,105,110,112.5,112.5,185,192.5,205,205,,,
1,Nelson Ong,M,SBD,MR-O,75,Raw,1994,VA,73.6,-172.5,177.5,192.5,192.5,90,100,107.5,107.5,205,225,240,240,540,,
2,Phillip Chan,M,SBD,MR-O,75,Raw,1997,MD,74.9,152.5,-170,170,170,130,135,140,140,190,205,217.5,217.5,527.5,,
3,Min Kim,M,SBD,MR-O,75,Raw,1997,VA,73.1,177.5,-190,190,190,112.5,127.5,-132.5,127.5,185,197.5,207.5,207.5,525,,
1,Briscoe Thompson,M,SBD,MR-O,90,Raw,1993,MD,86.45,-145,147.5,152.5,152.5,105,110,-115,110,175,185,195,195,457.5,,
1,Sebastian Baytan,M,SBD,MR-O,100,Raw,1996,VA,96.95,252.5,267.5,280,280,157.5,165,172.5,172.5,262.5,277.5,290,290,742.5,,
2,Kyung-Min Roh,M,SBD,MR-O,100,Raw,1998,SC,93.15,220,232.5,-240,232.5,165,172.5,-180,172.5,290,302.5,-317.5,302.5,707.5,,
3,Randy Michael,M,SBD,MR-O,100,Raw,1993,VA,92.25,220,235,-250,235,155,165,-170,165,260,275,-290,275,675,,
4,Daniel Juda,M,SBD,MR-O,100,Raw,1985,MD,93.05,175,185,195,195,115,125,-130,125,215,-227.5,-227.5,215,535,,
5,Antony Charles,M,SBD,MR-O,100,Raw,1997,VA,95.05,-130,130,142.5,142.5,120,127.5,135,135,155,-162.5,177.5,177.5,455,,
DQ,Brian Murphy #1,M,SBD,MR-O,100,Raw,1996,DC,96.9,-212.5,-212.5,-235,,125,140,-142.5,140,212.5,240,245,245,,,
1,Joseph Stephenson,M,SBD,MR-O,110,Raw,1989,MD,102.5,192.5,205,-212.5,205,145,-155,-155,145,225,242.5,-257.5,242.5,592.5,,
1,Brandon McDowell,M,SBD,MR-O,125,Raw,1993,NC,122.6,267.5,280,290,290,187.5,-195,195,195,270,290,-312.5,290,775,,
2,Jason Garcia #2,M,SBD,MR-O,125,Raw,1990,VA,115.7,195,207.5,217.5,217.5,137.5,145,152.5,152.5,222.5,235,247.5,247.5,617.5,,
3,Garrett Riggs,M,SBD,MR-O,125,Raw,1990,VA,112.65,167.5,177.5,187.5,187.5,127.5,135,-142.5,135,222.5,237.5,245,245,567.5,,
1,Austin Brouillard,M,SBD,MR-O,82.5,Raw,1996,MD,82,235,247.5,255,255,140,145,-150,145,247.5,-260,260,260,660,,
2,Russell Edwards #2,M,SBD,MR-O,82.5,Raw,1999,VA,82.45,210,225,232.5,232.5,127.5,135,-137.5,135,237.5,252.5,260,260,627.5,,
3,Christian Landeros Galvez,M,SBD,MR-O,82.5,Raw,1987,VA,78.7,160,165,-170,165,125,130,-132.5,130,185,190,192.5,192.5,487.5,,
4,Cameron Kenworthy,M,SBD,MR-O,82.5,Raw,1997,VA,80.5,132.5,140,145,145,115,120,122.5,122.5,185,197.5,207.5,207.5,475,,
5,Andrew Ly,M,SBD,MR-O,82.5,Raw,1997,MD,82.5,-125,125,137.5,137.5,117.5,127.5,-137.5,127.5,187.5,190,200,200,465,,
6,Dean Dorf,M,SBD,MR-O,82.5,Raw,1992,VA,78.3,132.5,137.5,142.5,142.5,102.5,-107.5,-107.5,102.5,195,200,202.5,202.5,447.5,,
DQ,Bart Fortune,M,SBD,MR-O,82.5,Raw,1994,VA,82.5,-160,-165,-165,,105,110,112.5,112.5,185,192.5,205,205,,,
DQ,Jack LaBolle,M,SBD,MR-T2,75,Raw,2004,PA,73.1,-205,-217.5,-217.5,,110,117.5,122.5,122.5,205,220,230,230,,,
1,Kenji Hoang,M,SBD,MR-T3,75,Raw,,MD,73.1,197.5,207.5,215,215,107.5,-112.5,115,115,187.5,197.5,202.5,202.5,532.5,,
1,Jonah Burman,M,SBD,MR-T3,110,Raw,2003,VA,106.2,245,260,275,275,155,165,-172.5,165,227.5,242.5,-257.5,242.5,682.5,,
