Place,Name,Sex,BirthDate,Age,State,Equipment,Division,BodyweightKg,WeightClassKg,Squat1Kg,Squat2Kg,Squat3Kg,Squat4Kg,Best3SquatKg,Bench1Kg,Bench2Kg,Bench3Kg,Bench4Kg,Best3BenchKg,Deadlift1Kg,Deadlift2Kg,Deadlift3Kg,Deadlift4Kg,Best3DeadliftKg,TotalKg,Event,Team
1,Sue Ann Hurlbert,F,1960-11-30,62,SC,Raw,M5-T,49,52,52.5,56.5,59,60.5,59,42.5,44,45,46.5,45,87.5,95,-101,,95,199,SBD,Team von Rohr
1,Valerie Ryan,F,1987-05-20,35,NC,Raw,N-X,89.6,90,95,-105,-105,,95,55,57.5,-62.5,,57.5,132.5,-145,-145,,132.5,285,SBD,Trufit
1,Vanessa Westbrook,F,1985-03-06,37,NC,Raw,O-T,66.3,67.5,90,97.5,-102.5,,97.5,70,72.5,-77.5,,72.5,125,-130,-130,,125,295,SBD,Fit4Life
1,Vanessa Westbrook,F,1985-03-06,37,NC,Raw,S-T,66.3,67.5,90,97.5,-102.5,,97.5,70,72.5,-77.5,,72.5,125,-130,-130,,125,295,SBD,Fit4Life
1,Valerie Ryan,F,1987-05-20,35,NC,Raw,S-T,89.6,90,95,-105,-105,,95,55,57.5,-62.5,,57.5,132.5,-145,-145,,132.5,285,SBD,Trufit
1,Eugene Vassar,M,2002-08-15,20,NC,Raw,J-T,121,125,157.5,165,172.5,,172.5,132.5,-145,-145,,132.5,220,245,-247.5,,245,550,SBD,Trufit
1,Brandon Jenkins,M,1982-03-22,40,SC,Raw,M1-T,73.66,75,182.5,190,195,,195,107.5,112.5,-117.5,,112.5,195,200,-210,,200,507.5,SBD,East Coast Barbell
1,Edmundo Thiery,M,1982-01-17,40,NC,Raw,M1-T,118.66,125,170,185,200,,200,120,-130,-130,,120,220,235,-245,,235,555,SBD,Mountain Island Fitness
1,David Rainwater,M,1973-02-24,49,SC,Raw,M2-T,140.98,140+,175,-185,-185,,175,185,190,-192.5,,190,200,-220,,,200,565,SBD,
1,Thomas Finley,M,1976-03-27,46,NC,Raw,M2-U,94.26,100,160,170,182.5,,182.5,100,110,115,,115,165,175,190,,190,487.5,SBD,IM Fitness
DQ,Sonja Drury,M,1969-11-19,53,NC,Raw,M3-T,67.1,67.5,82.5,92.5,100,,100,,,,,,92.5,97.5,102.5,,102.5,,SBD,Mountain Island FItness
1,Scott Perong,M,1965-06-03,57,NC,Raw,M4-T,88.54,90,112.5,117.5,127.5,,127.5,82.5,87.5,-95,,87.5,165,177.5,190,,190,405,SBD,Crossfit MNC
1,Scott Sherrill,M,1962-11-20,60,NC,Raw,M5-U,124.3,125,202.5,215,235,,235,160,162.5,170,,170,247.5,255,-265,,255,660,SBD,APE
1,Addison Williams,M,1991-07-10,31,NC,Raw,MPF-T,89.81,90,167.5,182.5,185,,185,147.5,160,-170,,160,245,272.5,-275,,272.5,617.5,SBD,Mountain Island Fitness
1,Benjamin Nastally,M,1998-08-07,24,NC,Raw,N-X,78.83,82.5,200,210,-215,,210,130,140,-147.5,,140,207.5,220,232.5,,232.5,582.5,SBD,City Fitness
1,Eugene Vassar,M,2002-08-15,20,NC,Raw,N-X,121,125,157.5,165,172.5,,172.5,132.5,-145,-145,,132.5,220,245,-247.5,,245,550,SBD,Trufit
1,Brandon Jenkins,M,1982-03-22,40,SC,Raw,O-T,73.66,75,182.5,190,195,,195,107.5,112.5,-117.5,,112.5,195,200,-210,,200,507.5,SBD,East Coast Barbell
1,Darius Ingram,M,1990-11-23,32,NC,Raw,O-T,81.1,82.5,185,205,-227.5,,205,147.5,160,-182.5,,160,185,205,227.5,,227.5,592.5,SBD,
1,Brandon Arthur,M,1994-06-25,28,NC,Raw,O-T,89.36,90,245,262.5,272.5,,272.5,185,197.5,202.5,,202.5,245,262.5,-267.5,,262.5,737.5,SBD,Carolina Fitness
2,Addison Williams,M,1991-07-10,31,NC,Raw,O-T,89.81,90,167.5,182.5,185,,185,147.5,160,-170,,160,245,272.5,-275,,272.5,617.5,SBD,Mountain Island Fitness
3,William Potter,M,1991-10-16,31,SC,Raw,O-T,85.5,90,110,117.5,127.5,,127.5,87.5,92.5,-97.5,,92.5,145,157.5,-160,,157.5,377.5,SBD,
1,Rocky Hall,M,1990-06-13,32,NC,Raw,O-T,92.85,100,215,232.5,250,,250,155,165,175,,175,250,272.5,-295,,272.5,697.5,SBD,IM Fitness
1,Christopher Jones #11,M,1983-05-24,39,NC,Raw,O-T,107.77,110,205,215,220,,220,157.5,160,165,,165,245,260,-272.5,,260,645,SBD,Dominate Athletic Performance
2,Eric Palmer,M,1995-12-16,27,NC,Raw,O-T,108.4,110,192.5,200,202.5,,202.5,132.5,142.5,147.5,,147.5,217.5,227.5,232.5,,232.5,582.5,SBD,
1,George Padin,M,1984-03-25,38,NC,Raw,O-U,94.62,100,170,185,200,,200,120,135,142.5,,142.5,170,185,195,,195,537.5,SBD,
2,Thomas Finley,M,1976-03-27,46,NC,Raw,O-U,94.26,100,160,170,182.5,,182.5,100,110,115,,115,165,175,190,,190,487.5,SBD,IM Fitness
1,Tate Manning,M,2008-01-24,14,NC,Raw,T1-X,63.41,67.5,122.5,130,142.5,,142.5,92.5,97.5,105,,105,-142.5,147.5,157.5,,157.5,405,SBD,Olympus 365
1,Jacob Call,M,2005-05-25,17,NC,Raw,T2-X,98.34,100,140,152.5,157.5,,157.5,85,92.5,97.5,,97.5,175,187.5,200,215.5,200,455,SBD,Muzz's Gym
1,Zechariah Smith,M,1999-12-11,23,NC,Wraps,J-U,89.18,90,262.5,272.5,280,,280,172.5,180,-185,,180,227.5,235,245.5,,245.5,705.5,SBD,Nebobarbell
1,Jeremy Bost,M,1976-02-05,46,NC,Wraps,M2-T,113.3,125,242.5,265,285,,285,167.5,182.5,-190,,182.5,240,257.5,272.5,,272.5,740,SBD,County Line Barbell
1,Curtis Rabon,M,1963-05-12,59,NC,Wraps,M4-U,124.03,125,260,297.5,,,297.5,160,170,175,,175,260,282.5,,,282.5,755,SBD,
1,Geoff Laney,M,1996-01-24,26,NC,Wraps,MPF-T,97.97,100,-272.5,272.5,282.5,,282.5,177.5,182.5,-187.5,,182.5,290,302.5,315,,315,780,SBD,Flat Back Lifting
1,Philip Love,M,1978-04-02,44,NC,Wraps,MPF-T,106.5,110,185,202.5,210,,210,182.5,192.5,-205,,192.5,227.5,237.5,250,,250,652.5,SBD,Train365
1,Geoff Laney,M,1996-01-24,26,NC,Wraps,O-T,97.97,100,-272.5,272.5,282.5,,282.5,177.5,182.5,-187.5,,182.5,290,302.5,315,,315,780,SBD,Flat Back Lifting
1,Zechariah Smith,M,1999-12-11,23,NC,Wraps,O-U,89.18,90,262.5,272.5,280,,280,172.5,180,-185,,180,227.5,235,245.5,,245.5,705.5,SBD,Nebobarbell
1,Jon Rand,M,1999-08-06,23,NC,Wraps,O-U,107.14,110,312.5,337.5,-350,,337.5,170,182.5,190,,190,270,290,305,,305,832.5,SBD,Carolina Fitness
1,Curtis Rabon,M,1963-05-12,59,NC,Wraps,O-U,124.03,125,260,297.5,,,297.5,160,170,175,,175,260,282.5,,,282.5,755,SBD,
1,Sammy Santes Jr,M,1994-06-14,28,NC,Wraps,O-U,153.68,140+,317.5,330,-352.5,,330,55,70,100,,100,65,,,,65,495,SBD,Nebobarbell
DQ,Rike Rijkent Zwaan,M,1972-10-14,50,NC,Multi-ply,M3-U,110,110,295,320,,,320,-227.5,-227.5,,,,-295,295,,,295,,SBD,Rijk's Strength & Performance
1,Dillon Ledford,M,1994-09-23,28,NC,Multi-ply,O-U,105.1,110,340,360,-377.5,,360,180,255,272.5,,272.5,272.5,290,297.5,,297.5,930,SBD,Nebobarbell
DQ,Rike Rijkent Zwaan,M,1972-10-14,50,NC,Multi-ply,O-U,110,110,295,320,,,320,-227.5,-227.5,,,,-295,295,,,295,,SBD,Rijk's Strength & Performance
1,Omar Barnes,M,1980-11-25,42,NC,Raw,M1-T,125.83,140,,,,,,157.5,175,182.5,,182.5,167.5,187.5,195,,195,377.5,BD,O2 Fitness
1,Omar Barnes,M,1980-11-25,42,NC,Raw,MPF-T,125.83,140,,,,,,157.5,175,182.5,,182.5,167.5,187.5,195,,195,377.5,BD,O2 Fitness
1,Trevor Rainwater,M,2007-04-17,15,SC,Raw,T1-X,70.22,75,,,,,,52.5,57.5,70,,70,110,125,-137.5,,125,195,BD,
1,Omar Barnes,M,1980-11-25,42,NC,Raw,M1-T,125.83,140,,,,,,157.5,175,182.5,,182.5,,,,,,182.5,B,O2 Fitness
1,Omar Barnes,M,1980-11-25,42,NC,Raw,MPF-T,125.83,140,,,,,,157.5,175,182.5,,182.5,,,,,,182.5,B,O2 Fitness
1,Brandon Arthur,M,1994-06-25,28,NC,Raw,O-T,89.36,90,,,,,,185,197.5,202.5,,202.5,,,,,,202.5,B,Carolina Fitness
1,Rwenshaun Miller,M,1986-11-21,36,NC,Raw,S-T,86.81,90,,,,,,142.5,160,-182.5,,160,,,,,,160,B,
1,John von Rohr,M,1947-12-08,75,SC,Single-ply,M8-T,118.66,125,,,,,,140,-145,-145,,140,,,,,,140,B,Team von Rohr
1,John von Rohr,M,1947-12-08,75,SC,Single-ply,MPF-T,118.66,125,,,,,,140,-145,-145,,140,,,,,,140,B,Team von Rohr
DQ,Travis Rinnert,M,1972-12-19,49,NC,Multi-ply,M2-U,124.2,125,,,,,,-255,-262.5,-262.5,,,,,,,,,B,Nebobarbell
1,Spencer Mather,M,1993-08-11,29,VA,Multi-ply,O-T,181.1,140+,,,,,,427.5,455,,,455,,,,,,455,B,
DQ,Stephen Lane #1,M,1988-02-25,34,SC,Multi-ply,O-U,123.74,125,,,,,,-420,-420,-420,,,,,,,,,B,ESP Power
DQ,Travis Rinnert,M,1972-12-19,49,NC,Multi-ply,O-U,124.2,125,,,,,,-255,-262.5,-262.5,,,,,,,,,B,Nebobarbell
1,Omar Barnes,M,1980-11-25,42,NC,Raw,M1-T,125.83,140,,,,,,,,,,,167.5,187.5,195,,195,195,D,O2 Fitness
1,Roy Apseloff,M,1957-09-22,65,VA,Raw,M6-T,91.53,100,,,,,,,,,,,205,220,230,235,230,230,D,Trident Athletics
1,Omar Barnes,M,1980-11-25,42,NC,Raw,MPF-T,125.83,140,,,,,,,,,,,167.5,187.5,195,,195,195,D,O2 Fitness
