Name,Country,Sex,BirthYear,Age,Division,WeightClassKg,BodyweightKg,Squat1Kg,Squat2Kg,Squat3Kg,Best3SquatKg,Bench1Kg,Bench2Kg,Bench3Kg,Best3BenchKg,Deadlift1Kg,Deadlift2Kg,Deadlift3Kg,Best3DeadliftKg,TotalKg,Place,Event,Equipment,BirthDate
Alessandra Gentilucci,Italy,F,2001,21,Juniors,43,42.96,105,112.5,-115,112.5,60,62.5,65,65,122.5,130,-137.5,130,307.5,1,SBD,Raw,
Marta Scuderi,Italy,F,2001,21,Juniors,47,46.78,120,127.5,-130,127.5,67.5,70,-72.5,70,142.5,152.5,-155,152.5,350,1,SBD,Raw,
Mona Shafiei,UK,F,1999,23,Juniors,47,46.9,-100,100,107.5,107.5,65,-70,70,70,132.5,142.5,147.5,147.5,325,2,SBD,Raw,
Nataliya Cheremenko,Ukraine,F,2001,21,Juniors,47,46.96,105,110,,110,95,99,-103.5,99,105,112.5,115,115,324,3,SBD,Raw,
Gigi Nicolson,UK,F,1999,23,Juniors,47,46.26,85,92.5,95,95,52.5,57.5,60,60,-127.5,127.5,132.5,132.5,287.5,4,SBD,Raw,
Daniela Stroe,Romania,F,1999,23,Juniors,47,46.78,85,-90,-100,85,47.5,52.5,-60,52.5,110,120,-130,120,257.5,5,SBD,Raw,
Camille Hadrys,France,F,2000,22,Juniors,52,51.79,140,145,147.5,147.5,85,87.5,90,90,162.5,170,-172.5,170,407.5,1,SBD,Raw,
Olivia Kyösti,Finland,F,1999,23,Juniors,52,51.73,140,145,-147.5,145,87.5,90,-92.5,90,155,162.5,-165,162.5,397.5,2,SBD,Raw,
Izabela Góralska,Poland,F,2000,22,Juniors,52,51.93,130,135,-140,135,75,77.5,-80,77.5,150,160,167.5,167.5,380,3,SBD,Raw,
Nayma Larrosa Cintas,Spain,F,2000,22,Juniors,52,51.91,117.5,122.5,-127.5,122.5,80,-85,-85,80,147.5,157.5,165,165,367.5,4,SBD,Raw,
Aleksandra Blajer,Poland,F,2000,22,Juniors,52,51.51,125,130,-135,130,72.5,75,-80,75,137.5,145,150,150,355,5,SBD,Raw,
Anastasia Njergeš Orčik,Serbia,F,1999,23,Juniors,52,51.24,-117.5,117.5,125,125,65,-70,-70,65,-155,155,-172.5,155,345,6,SBD,Raw,
Andrea Larrosa Cintas,Spain,F,2000,22,Juniors,52,51.95,112.5,122.5,-130,122.5,70,75,77.5,77.5,132.5,142.5,-147.5,142.5,342.5,7,SBD,Raw,
Šárka Fibingrová,Czechia,F,2001,21,Juniors,52,50.69,120,125,-130,125,75,-77.5,-77.5,75,130,140,-150,140,340,8,SBD,Raw,
Jade Jacob,France,F,2001,21,Juniors,57,56.68,165,172.5,-177.5,172.5,92.5,97.5,100,100,210.5,223,-227.5,223,495.5,1,SBD,Raw,
Maiara Da Silva Días,Spain,F,1999,23,Juniors,57,56.94,165,-170,-172.5,165,85,90,-92.5,90,180,190,-200,190,445,2,SBD,Raw,
Ida-Therese Lindeberg,Sweden,F,2000,22,Juniors,57,55.8,-140,140,147.5,147.5,82.5,85,-87.5,85,165,172.5,185,185,417.5,3,SBD,Raw,
Helena Mariella Decker,Germany,F,2001,21,Juniors,57,56.75,142.5,150,152.5,152.5,85,90,92.5,92.5,165,172.5,-177.5,172.5,417.5,4,SBD,Raw,
Caitlin Marie Baxter,UK,F,2001,21,Juniors,57,55.63,140,147.5,-150,147.5,-92.5,92.5,-97.5,92.5,145,152.5,157.5,157.5,397.5,5,SBD,Raw,
Selma Karoline Matilde Ramberg,Norway,F,2001,21,Juniors,57,55.08,125,132.5,137.5,137.5,90,100,107.5,107.5,130,140,150,150,395,6,SBD,Raw,
Mia Margrethe Ramberg Storstad,Norway,F,1999,23,Juniors,57,56.35,-125,-125,130,130,95,100,-105,100,135,145,-150,145,375,7,SBD,Raw,
Marina Lostau De La Fuente,Spain,F,1999,23,Juniors,57,56.74,122.5,127.5,130,130,65,70,75,75,155,167.5,-175,167.5,372.5,8,SBD,Raw,
Zuzanna Kula,Poland,F,1999,23,Juniors,57,54.77,127.5,132.5,135,135,82.5,-87.5,87.5,87.5,132.5,140,147.5,147.5,370,9,SBD,Raw,
Nataliia Maha,Ukraine,F,2001,21,Juniors,57,56.31,135,140,-145,140,65,70,75,75,130,142.5,155,155,370,10,SBD,Raw,
Gabriela Blajer,Poland,F,2000,22,Juniors,57,56.5,135,-137.5,-140,135,70,75,-77.5,75,150,157.5,160,160,370,11,SBD,Raw,
Aimee Jarvie,UK,F,1999,23,Juniors,57,55.72,130,-137.5,137.5,137.5,-70,70,-72.5,70,147.5,155,160,160,367.5,12,SBD,Raw,
Michaela Filová,Czechia,F,1999,23,Juniors,57,56.88,125,130,132.5,132.5,-67.5,67.5,-72.5,67.5,135,142.5,150,150,350,13,SBD,Raw,
Veronika Pasičná,Czechia,F,1999,23,Juniors,57,56.88,125,-130,-130,125,-65,65,70,70,147.5,152.5,-157.5,152.5,347.5,14,SBD,Raw,
Carmen Immink,Netherlands,F,2002,20,Juniors,57,56.58,120,125,-127.5,125,75,77.5,-80,77.5,135,142.5,-145,142.5,345,15,SBD,Raw,
Ellen O'Leary,Ireland,F,2000,22,Juniors,57,56.33,112.5,-120,120,120,57.5,62.5,65,65,140,150,157.5,157.5,342.5,16,SBD,Raw,
Meave Lindner,Ireland,F,1999,23,Juniors,57,55.6,110,115,-117.5,115,55,60,62.5,62.5,112.5,117.5,120,120,297.5,17,SBD,Raw,
Ludivine Delos,France,F,2000,22,Juniors,63,62.65,177.5,184,-185.5,184,90,95,97.5,97.5,185,192.5,200,200,481.5,1,SBD,Raw,
Alba Boström,Sweden,F,2001,21,Juniors,63,62.28,155,160,-162.5,160,-120,-120,120,120,177.5,187.5,-195,187.5,467.5,2,SBD,Raw,
Inmaculada Soto Ruiz,Spain,F,2000,22,Juniors,63,62.37,140,-150,150,150,97.5,102.5,105,105,180,190,197.5,197.5,452.5,3,SBD,Raw,
Tara Pigott,UK,F,1999,23,Juniors,63,62.65,147.5,-152.5,157.5,157.5,85,90,92.5,92.5,165,172.5,-175,172.5,422.5,4,SBD,Raw,
Janneke Brauckman,Netherlands,F,1999,23,Juniors,63,60.88,132.5,140,-145,140,102.5,107.5,110,110,162.5,170,-172.5,170,420,5,SBD,Raw,
Marthe Tjelta,Norway,F,1999,23,Juniors,63,62.78,140,147.5,152.5,152.5,75,80,-85,80,150,162.5,-167.5,162.5,395,6,SBD,Raw,
Sabina Materek,Poland,F,1999,23,Juniors,63,62.75,150,155,160,160,75,-80,-80,75,152.5,157.5,-165,157.5,392.5,7,SBD,Raw,
Sofia Räihä,Finland,F,2001,21,Juniors,63,62.73,137.5,-142.5,-145,137.5,80,82.5,85,85,-160,167.5,-172.5,167.5,390,8,SBD,Raw,
Jessica Jeremaes,Switzerland,F,2001,21,Juniors,63,62.53,127.5,135,140,140,80,85,87.5,87.5,142.5,152.5,160,160,387.5,9,SBD,Raw,
Leah Kearney,Ireland,F,2001,21,Juniors,63,62.69,-132.5,132.5,137.5,137.5,75,80,82.5,82.5,150,160,162.5,162.5,382.5,10,SBD,Raw,
Laura Isabel Salazar Droege,Austria,F,2001,21,Juniors,63,62.95,120,127.5,-132.5,127.5,70,75,77.5,77.5,155,165,172.5,172.5,377.5,11,SBD,Raw,
Martyna Wystemp,Poland,F,2002,20,Juniors,63,61.68,137.5,140,-142.5,140,67.5,70,-72.5,70,150,160,165,165,375,12,SBD,Raw,
Anne-Sophie Brysse,Belgium,F,2000,22,Juniors,63,61.85,125,132.5,135,135,75,80,-85,80,137.5,150,155,155,370,13,SBD,Raw,
Matea Bumba,Croatia,F,1999,23,Juniors,63,61.73,-117.5,-117.5,117.5,117.5,75,80,-85,80,150,155,160,160,357.5,14,SBD,Raw,
Mira Khamis,Austria,F,1999,23,Juniors,63,60.14,112.5,120,125,125,60,65,-67.5,65,140,150,-160,150,340,15,SBD,Raw,
Lucía Sánchez Capilla,Spain,F,2000,22,Juniors,63,62.47,110,-117.5,-117.5,110,70,72.5,-75,72.5,145,-152.5,-152.5,145,327.5,16,SBD,Raw,
Clara Peyraud,France,F,2002,20,Juniors,69,68.73,165,172.5,177.5,177.5,107.5,112.5,115,115,202.5,212.5,218,218,510.5,1,SBD,Raw,
Noemi Fanton,Italy,F,2000,22,Juniors,69,67.9,177.5,185.5,190.5,190.5,97.5,102.5,105,105,190,200,212.5,212.5,508,2,SBD,Raw,
Ramunė Vainauskytė,Lithuania,F,2000,22,Juniors,69,67.12,180,190,-195,190,90,100,107.5,107.5,-200,200,210,210,507.5,3,SBD,Raw,
Samantha Eugenie,France,F,2002,20,Juniors,69,66.32,165,175,177.5,177.5,100,105,107.5,107.5,-210,210,-227.5,210,495,4,SBD,Raw,
Agnes Rudin,Sweden,F,2000,22,Juniors,69,68.54,175,-180,-180,175,110,116.5,121,121,180,190,-200,190,486,5,SBD,Raw,
Dariya Iskiv,Ukraine,F,1999,23,Juniors,69,67.4,-167.5,167.5,-172.5,167.5,102.5,107.5,-112.5,107.5,180,190,-200,190,465,6,SBD,Raw,
Eszter Sallai,Hungary,F,2001,21,Juniors,69,68.36,152.5,162.5,167.5,167.5,95,100,102.5,102.5,177.5,187.5,192.5,192.5,462.5,7,SBD,Raw,
Juliane Slettnes,Norway,F,2001,21,Juniors,69,68.56,165,177.5,-185,177.5,87.5,95,-97.5,95,165,175,177.5,177.5,450,8,SBD,Raw,
Drusilla Coan,Italy,F,2001,21,Juniors,69,68.5,160,-165,-165,160,116,-120.5,-121.5,116,165,172.5,-177.5,172.5,448.5,9,SBD,Raw,
Sophia Pilwax,Austria,F,1999,23,Juniors,69,66.46,145,152.5,-160,152.5,90,95,-100,95,180,190,197.5,197.5,445,10,SBD,Raw,
Asude Daglioglu,Turkey,F,2000,22,Juniors,69,67.55,-160,170,-175,170,75,80,-85,80,180,195,-205,195,445,11,SBD,Raw,
Jordan Bright,Ireland,F,2000,22,Juniors,69,67.72,155,165,175,175,75,80,82.5,82.5,155,165,175,175,432.5,12,SBD,Raw,
Iduna Bink,Netherlands,F,2001,21,Juniors,69,68.28,157.5,165,-170,165,80,85,-87.5,85,165,180,-190,180,430,13,SBD,Raw,
Lota Leinberga,Ireland,F,1999,23,Juniors,69,68.44,145,152.5,155,155,95,100,102.5,102.5,150,160,167.5,167.5,425,14,SBD,Raw,
Valerie Velemanová,Czechia,F,1999,23,Juniors,69,67.24,137.5,145,150,150,80,85,-87.5,85,172.5,185,-190,185,420,15,SBD,Raw,
Yasmina Juliette Havnen,Norway,F,2003,19,Juniors,69,67.62,142.5,150,152.5,152.5,77.5,82.5,-85,82.5,152.5,165,170,170,405,16,SBD,Raw,
Sandra Kučerová,Czechia,F,2000,22,Juniors,69,68.73,130,137.5,142.5,142.5,72.5,75,77.5,77.5,160,167.5,170,170,390,17,SBD,Raw,
Marta Lopes,Portugal,F,2000,22,Juniors,69,68.28,122.5,130,135,135,70,75,77.5,77.5,167.5,175,-180,175,387.5,18,SBD,Raw,
Kornelia Brunnhofer,Austria,F,2000,22,Juniors,69,67.29,122.5,130,-135,130,62.5,67.5,70,70,165,-180,-187.5,165,365,19,SBD,Raw,
Laura Mautalen,France,F,2000,22,Juniors,76,74.59,175,182.5,190,190,130,135,140,140,205,215,220,220,550,1,SBD,Raw,
Vilma Olsson,Sweden,F,1999,23,Juniors,76,73.37,195,205,-210.5,205,110,117.5,120,120,185,195,202.5,202.5,527.5,2,SBD,Raw,
Ellen Grönlund,Finland,F,2000,22,Juniors,76,75.41,175,185,192.5,192.5,107.5,112.5,-115,112.5,195,207.5,-225,207.5,512.5,3,SBD,Raw,
Elke de Leeuw,Netherlands,F,1999,23,Juniors,76,74.93,137.5,150,157.5,157.5,72.5,77.5,82.5,82.5,162.5,175,180,180,420,4,SBD,Raw,
Veronika Šigutová,Czechia,F,2002,20,Juniors,76,75.27,147.5,157.5,165,165,72.5,80,85,85,165,-175,-175,165,415,5,SBD,Raw,
Nina Heikkinen,Finland,F,2003,19,Juniors,76,74.71,160,170,-175,170,65,70,72.5,72.5,160,167.5,-170,167.5,410,6,SBD,Raw,
Cathelijne Gort,Netherlands,F,2001,21,Juniors,76,74.82,120,125,-130,125,95,-100,-100,95,180,190,-195,190,410,7,SBD,Raw,
Nuša Železnik,Slovenia,F,2000,22,Juniors,76,75.47,150,160,-167.5,160,87.5,95,-100,95,140,155,-172.5,155,410,8,SBD,Raw,
Despoina Charitopoulou,Greece,F,1999,23,Juniors,76,74.23,145,-155,-155,145,65,70,-72.5,70,190,-197.5,-197.5,190,405,9,SBD,Raw,
Lucie Daňková,Czechia,F,2000,22,Juniors,76,73.29,132.5,142.5,-150,142.5,85,90,95,95,150,160,162.5,162.5,400,10,SBD,Raw,
Mia Kovacs,Ireland,F,1999,23,Juniors,76,72.99,147.5,152.5,155,155,72.5,-77.5,-80,72.5,-160,160,170,170,397.5,11,SBD,Raw,
Martyna Piątkowska,Poland,F,2003,19,Juniors,76,71.18,-147.5,147.5,,147.5,67.5,70,72.5,72.5,-162.5,162.5,-165,162.5,382.5,12,SBD,Raw,
Erholove Izobodo-John,UK,F,2001,21,Juniors,84,81.75,190,200,208,208,85,90,-92.5,90,230,240.5,-245.5,240.5,538.5,1,SBD,Raw,
Henna Kaasalainen,Finland,F,1999,23,Juniors,84,83.94,190,195,200,200,90,95,100,100,200,-210,210,210,510,2,SBD,Raw,
Serena Vargas Fernández,Spain,F,2000,22,Juniors,84,83.52,-160,160,172.5,172.5,85,90,92.5,92.5,180,190,-205,190,455,3,SBD,Raw,
Marcha Wieringa,Netherlands,F,2002,20,Juniors,84,83.07,145,155,157.5,157.5,80,85,87.5,87.5,180,190,195,195,440,4,SBD,Raw,
Sofie Horne,Norway,F,2001,21,Juniors,84,77.6,145,150,-152.5,150,90,95,-97.5,95,180,190,-195,190,435,5,SBD,Raw,
Melina Irawo,UK,F,2000,22,Juniors,84,82.05,90,95,100,100,107.5,112.5,115,115,185,195,205,205,420,6,SBD,Raw,
Eliška Trnková,Czechia,F,2000,22,Juniors,84,80.29,135,140,145,145,87.5,92.5,-95,92.5,165,175,180,180,417.5,7,SBD,Raw,
Bo Haek,Belgium,F,1999,23,Juniors,84,83.48,-135,135,-142.5,135,80,-85,-85,80,142.5,150,155,155,370,8,SBD,Raw,
Lystus Ebosele,Ireland,F,2001,21,Juniors,84+,89.35,200,212.5,220,220,117.5,-125,125,125,180,195,-200,195,540,1,SBD,Raw,
Klaudia Murza,Poland,F,2002,20,Juniors,84+,125.95,185,197.5,205,205,90,97.5,100,100,155,165,170,170,475,2,SBD,Raw,
Chizaram Egbuziem,UK,F,1999,23,Juniors,84+,100.58,157.5,165,167.5,167.5,77.5,82.5,87.5,87.5,175,182.5,190,190,445,3,SBD,Raw,
Kinga Świderska,Poland,F,2002,20,Juniors,84+,122.22,165,170,172.5,172.5,-85,85,-90,85,165,-175,-175,165,422.5,4,SBD,Raw,
Talor Aiyegbeni,Ireland,F,2001,21,Juniors,84+,89.58,150,160,-165,160,60,65,-67.5,65,170,185,-190,185,410,5,SBD,Raw,
Vira Popruha,Ukraine,F,2003,19,Juniors,84+,131.72,130,-140,140,140,70,80,-92.5,80,130,-145,-145,130,350,6,SBD,Raw,
Tiffany Chapon,France,F,2001,21,Open,47,46.95,140,150,-155,150,90,95,-97.5,95,162.5,-171,-171,162.5,407.5,1,SBD,Raw,
Stéphanie Legard,France,F,1981,41,Open,47,46.61,117.5,-122.5,125,125,70,75,-80,75,147.5,152.5,155,155,355,2,SBD,Raw,
Ana Lores Fernández,Spain,F,1996,26,Open,47,46.83,125,135,140,140,57.5,60,62.5,62.5,132.5,142.5,145,145,347.5,3,SBD,Raw,
Emma Granlund,Sweden,F,1989,33,Open,47,46.73,100,105,110,110,72.5,77.5,-82.5,77.5,125,135,-142.5,135,322.5,4,SBD,Raw,
Enna Hynynen,Finland,F,1992,30,Open,47,46.16,100,102.5,105,105,57.5,60,-62.5,60,122.5,125,130,130,295,5,SBD,Raw,
Julia Rozmus,Poland,F,1998,24,Open,47,45.76,97.5,-102.5,-102.5,97.5,50,52.5,-55,52.5,110,-120,-120,110,260,6,SBD,Raw,
Noémie Allabert,France,F,1990,32,Open,52,51.89,160,165,167.5,167.5,77.5,82.5,85,85,180,185,,185,437.5,1,SBD,Raw,
Pleun Dekkers,Netherlands,F,1994,28,Open,52,51.76,160,169,171,171,80,85,87.5,87.5,162.5,-170,-170,162.5,421,2,SBD,Raw,
Aleksandra Aranitovic,Serbia,F,1990,32,Open,52,51.86,140,-145,147.5,147.5,92.5,97.5,-100,97.5,160,165,170,170,415,3,SBD,Raw,
Sarah Klein #1,Germany,F,1988,34,Open,52,50.64,130,137.5,140,140,77.5,80,82.5,82.5,165,172.5,177.5,177.5,400,4,SBD,Raw,
Alison Huet,France,F,1996,26,Open,52,51.83,130,-135,,130,92.5,97.5,-100,97.5,-160,160,162.5,162.5,390,5,SBD,Raw,
Viktoria Druziaka,Ukraine,F,1998,24,Open,52,51.03,140,145,150,150,85,90,-95,90,140,145,147.5,147.5,387.5,6,SBD,Raw,
Leoni Tatman,UK,F,1990,32,Open,52,51.92,120,-130,130,130,87.5,92.5,-97.5,92.5,142.5,147.5,150,150,372.5,7,SBD,Raw,
Dawn Steacy,Ireland,F,1988,34,Open,52,51.6,110,117.5,-122.5,117.5,77.5,82.5,85,85,150,157.5,162.5,162.5,365,8,SBD,Raw,
Jessica Cabañil Chávez,Spain,F,1997,25,Open,52,51.46,135,142.5,-147.5,142.5,67.5,70,-72.5,70,140,145,147.5,147.5,360,9,SBD,Raw,
Oda Jystad Jensen,Denmark,F,1996,26,Open,52,51.6,105,110,115,115,85,-90,-92.5,85,135,145,150,150,350,10,SBD,Raw,
Stefanie Verhulst,Belgium,F,1990,32,Open,52,51.7,115,-122.5,-122.5,115,65,67.5,-70,67.5,132.5,142.5,147.5,147.5,330,11,SBD,Raw,
Joanna Mardas,Poland,F,1986,36,Open,52,50.34,100,110,115,115,55,57.5,60,60,-130,140,-145,140,315,12,SBD,Raw,
Veronika Linhartová,Czechia,F,1998,24,Open,52,50.8,90,-102.5,102.5,102.5,57.5,60,62.5,62.5,110,117.5,125,125,290,13,SBD,Raw,
Bobbie Butters,UK,F,1994,28,Open,57,56.79,172.5,180,185.5,185.5,102.5,110,112.5,112.5,172.5,-185,185,185,483,1,SBD,Raw,
Alessandra Cernigliaro,Italy,F,1995,27,Open,57,56.35,150,157.5,-160,157.5,90,95,97.5,97.5,167.5,175,-185,175,430,2,SBD,Raw,
Sopiko Kvantchiani,Georgia,F,1998,24,Open,57,56.54,145,-150,-150,145,100,102.5,105,105,160,-167.5,-167.5,160,410,3,SBD,Raw,
Satu Pylväs,Finland,F,1994,28,Open,57,56.66,135,140,-145,140,82.5,-87.5,87.5,87.5,182.5,-190,-190,182.5,410,4,SBD,Raw,
Katja Babič,Slovenia,F,1993,29,Open,57,56.05,142.5,150,-152.5,150,77.5,82.5,-85,82.5,160,167.5,-177.5,167.5,400,5,SBD,Raw,
Gina Bakke Bolstad,Norway,F,1991,31,Open,57,56.56,150,157.5,162.5,162.5,77.5,82.5,85,85,150,-157.5,-157.5,150,397.5,6,SBD,Raw,
Sara Ellegaard Andreasen,Denmark,F,1993,29,Open,57,56.27,117.5,125,127.5,127.5,85,90,-92.5,90,160,167.5,175,175,392.5,7,SBD,Raw,
Blanka Bartoňková,Czechia,F,1995,27,Open,57,56.52,137.5,145,150,150,70,75,77.5,77.5,160,-170,-175,160,387.5,8,SBD,Raw,
Barbara Gapp,Austria,F,1981,41,Open,57,56.57,-125,-125,125,125,65,70,72.5,72.5,182.5,190,-202.5,190,387.5,9,SBD,Raw,
Laura Rey Villameá,Spain,F,1993,29,Open,57,55.45,122.5,-127.5,-127.5,122.5,77.5,-80,80,80,167.5,180,-185,180,382.5,10,SBD,Raw,
Mathilde Oestergaard,Denmark,F,1994,28,Open,57,56.92,130,137.5,-140,137.5,75,80,-82.5,80,150,160,165,165,382.5,11,SBD,Raw,
Anna Hourihane,Ireland,F,1993,29,Open,57,56.53,120,127.5,132.5,132.5,80,85,87.5,87.5,150,160,-170,160,380,12,SBD,Raw,
Yaryna Korol,Ukraine,F,1988,34,Open,57,56.42,125,132.5,-135,132.5,75,80,-82.5,80,142.5,-150,150,150,362.5,13,SBD,Raw,
Kateřina Balášová,Czechia,F,1993,29,Open,57,56.75,100,115,130,130,70,77.5,-80,77.5,140,155,-157.5,155,362.5,14,SBD,Raw,
Şehrinur Aydos,Turkey,F,1998,24,Open,57,55.09,-125,-125,125,125,-70,70,-77.5,70,145,152.5,160,160,355,15,SBD,Raw,
Louise Murray,Portugal,F,1988,34,Open,57,55.63,125,130,-135,130,82.5,87.5,-90,87.5,120,127.5,135,135,352.5,16,SBD,Raw,
Zoé Coinne,Belgium,F,1998,24,Open,57,55.74,120,127.5,-132.5,127.5,72.5,77.5,-80,77.5,130,140,-142.5,140,345,17,SBD,Raw,
Diana Neculae,Romania,F,1989,33,Open,57,56.93,102.5,110,-117.5,110,62.5,67.5,-70,67.5,150,-160,-160,150,327.5,18,SBD,Raw,
Sanja Mirković,Serbia,F,1992,30,Open,57,56.14,100,110,-115,110,52.5,57.5,-60,57.5,140,-150,-150,140,307.5,19,SBD,Raw,
Océane Regis,France,F,1996,26,Open,57,56.29,155,-160,-162.5,155,-92.5,-92.5,-92.5,,180,-185,-185,180,,DQ,SBD,Raw,
Chiara Bernardi,Italy,F,1998,24,Open,63,62.72,170,180,185,185,112.5,117.5,-122.5,117.5,-197.5,207.5,215,215,517.5,1,SBD,Raw,
Sara Naldi,Italy,F,1998,24,Open,63,62.17,170,180,187.5,187.5,100,102.5,105,105,202.5,212.5,-225,212.5,505,2,SBD,Raw,
Signe Elisabeth Belden,Norway,F,1983,39,Open,63,62.45,165,172.5,177.5,177.5,105,110,-115,110,175,-190,-190,175,462.5,3,SBD,Raw,
Radostina Lulova,Bulgaria,F,1993,29,Open,63,62,157.5,165,-172.5,165,82.5,87.5,-90,87.5,180,187.5,195,195,447.5,4,SBD,Raw,
Nataliia Zhukovska,Ukraine,F,1981,41,Open,63,62.62,140,145,-150,145,90,95,-97.5,95,195,205,-207.5,205,445,5,SBD,Raw,
Esmee Dijjers,Netherlands,F,1996,26,Open,63,62.63,142.5,150,-157.5,150,77.5,-82.5,82.5,82.5,180,192.5,-207.5,192.5,425,6,SBD,Raw,
Geina McGrath,Ireland,F,1990,32,Open,63,62.52,140,-150,-150,140,80,85,87.5,87.5,160,170,175,175,402.5,7,SBD,Raw,
Michaela Zemánková,Czechia,F,1991,31,Open,63,61.59,132.5,140,-147.5,140,75,-80,-80,75,165,172.5,180,180,395,8,SBD,Raw,
Dr. Toth Viktoria Flavia,Hungary,F,1997,25,Open,63,62.83,125,-135,135,135,90,95,-97.5,95,-150,150,-160,150,380,9,SBD,Raw,
Luisa Vargas,Portugal,F,1996,26,Open,63,62.75,115,120,122.5,122.5,62.5,65,67.5,67.5,162.5,-170,170,170,360,10,SBD,Raw,
Ivana Horná,Slovakia,F,1990,32,Open,69,68.61,180,187.5,192.5,192.5,102.5,107.5,110,110,215,225,230.5,230.5,533,1,SBD,Raw,
Marte Kjenner,Norway,F,1989,33,Open,69,68.65,-182.5,182.5,-190,182.5,115,120,-122.5,120,205,217.5,-227.5,217.5,520,2,SBD,Raw,
Annie Nelson,UK,F,1996,26,Open,69,68.64,170,177.5,182.5,182.5,102.5,107.5,-112.5,107.5,195,207.5,-215,207.5,497.5,3,SBD,Raw,
Raphaela Jungmann,Austria,F,1987,35,Open,69,68.16,-175,175,185,185,102.5,107.5,-112.5,107.5,195,202.5,-205,202.5,495,4,SBD,Raw,
Marika Zandecka,Poland,F,1995,27,Open,69,68.31,175,185,190,190,92.5,97.5,100,100,192.5,205,-212.5,205,495,5,SBD,Raw,
Tasmin Campbell,UK,F,1984,38,Open,69,68.21,160,-170,-170,160,110,115,117.5,117.5,200,210,-220,210,487.5,6,SBD,Raw,
Elsa Sörman Paulsson,Sweden,F,1989,33,Open,69,66.39,-162.5,162.5,167.5,167.5,95,100,105,105,172.5,180,187.5,187.5,460,7,SBD,Raw,
Mia Schjøtt Irving,Denmark,F,1998,24,Open,69,68.19,155,165,170,170,80,85,-87.5,85,185,195,205,205,460,8,SBD,Raw,
Jorill Nese,Norway,F,1998,24,Open,69,68.71,165,175,-180,175,100,105,107.5,107.5,160,172.5,177.5,177.5,460,9,SBD,Raw,
Stina Lindell,Finland,F,1988,34,Open,69,68.43,157.5,160,165,165,102.5,107.5,112.5,112.5,162.5,167.5,175,175,452.5,10,SBD,Raw,
Barbora Josková,Czechia,F,1997,25,Open,69,67.67,140,147.5,-152.5,147.5,95,100,102.5,102.5,182.5,190,195,195,445,11,SBD,Raw,
Muriel Muiños Rivera,Spain,F,1998,24,Open,69,68.39,157.5,-165,170,170,92.5,-100,-100,92.5,162.5,172.5,177.5,177.5,440,12,SBD,Raw,
Meri Kallio,Finland,F,1986,36,Open,69,67.25,135,142.5,147.5,147.5,87.5,92.5,-95,92.5,175,180,-185,180,420,13,SBD,Raw,
Chiara Luraschi,Switzerland,F,1997,25,Open,69,64.44,142.5,150,-155,150,85,87.5,90,90,177.5,-190,-190,177.5,417.5,14,SBD,Raw,
Victoria Vélez Herrero,Spain,F,1991,31,Open,69,67.55,135,142.5,150,150,72.5,77.5,82.5,82.5,170,180,-190,180,412.5,15,SBD,Raw,
Jennifer Harrington,Ireland,F,1998,24,Open,69,68.91,140,150,-157.5,150,72.5,80,85,85,155,167.5,175,175,410,16,SBD,Raw,
Ana Rodrigues,Portugal,F,1992,30,Open,69,68.19,-150,150,160,160,67.5,-72.5,72.5,72.5,170,-180,-180,170,402.5,17,SBD,Raw,
Deborah Pungitore,Switzerland,F,1990,32,Open,69,68.22,132.5,-140,-140,132.5,85,90,-92.5,90,145,152.5,-157.5,152.5,375,18,SBD,Raw,
Asya Chakarova,Bulgaria,F,1993,29,Open,69,67.66,120,127.5,135,135,70,77.5,80,80,145,150,-155,150,365,19,SBD,Raw,
Izabela Chatlińska,Poland,F,1978,44,Open,69,68.04,-140,140,-147.5,140,60,62.5,65,65,150,157.5,-162.5,157.5,362.5,20,SBD,Raw,
Sophia Ellis,UK,F,1996,26,Open,76,74.34,150,160,165,165,115,120,122.5,122.5,220,230,240.5,240.5,528,1,SBD,Raw,
Lea Schreiner,Germany,F,1995,27,Open,76,74.79,172.5,180,185,185,102.5,107.5,110,110,202.5,212.5,217.5,217.5,512.5,2,SBD,Raw,
Sara Sanchez-Manjavacas Ruiz,Spain,F,1998,24,Open,76,75.42,-170,177.5,-185,177.5,102.5,110,112.5,112.5,200,210,220,220,510,3,SBD,Raw,
Maja Bonde,Denmark,F,1993,29,Open,76,74.66,167.5,177.5,-180,177.5,92.5,97.5,100,100,190,202.5,-212.5,202.5,480,4,SBD,Raw,
Stine Hamre,Norway,F,1995,27,Open,76,75.59,172.5,180,185,185,97.5,102.5,-107.5,102.5,177.5,187.5,192.5,192.5,480,5,SBD,Raw,
Emily Bennett,UK,F,1994,28,Open,76,75.74,177.5,185,187.5,187.5,87.5,92.5,-95,92.5,190,200,-207.5,200,480,6,SBD,Raw,
Mira Lahtinen,Finland,F,1987,35,Open,76,75.58,160,-167.5,167.5,167.5,105,110,115,115,185,-195,-200,185,467.5,7,SBD,Raw,
Danielle Huijser,Netherlands,F,1992,30,Open,76,75.65,-155,155,165,165,97.5,102.5,-105,102.5,182.5,192.5,200,200,467.5,8,SBD,Raw,
Tuulia Lohivuo,Finland,F,1997,25,Open,76,75.75,165,172.5,-180,172.5,105,110,-115,110,170,180,-187.5,180,462.5,9,SBD,Raw,
Emma McDermott,Ireland,F,1992,30,Open,76,74.87,147.5,155,160,160,90,95,97.5,97.5,185,195,200,200,457.5,10,SBD,Raw,
Andrea Marx,Switzerland,F,1993,29,Open,76,75.11,150,157.5,165,165,90,95,97.5,97.5,170,185,192.5,192.5,455,11,SBD,Raw,
Enikö Tóth,Hungary,F,1998,24,Open,76,75.42,160,-167.5,-170,160,90,95,-97.5,95,180,192.5,-195,192.5,447.5,12,SBD,Raw,
Kristýna Rakovská,Czechia,F,1993,29,Open,76,75.78,160,170,-175,170,90,-97.5,-97.5,90,185,-195,-195,185,445,13,SBD,Raw,
Fanni Petresevics,Hungary,F,1998,24,Open,76,73.96,142.5,150,152.5,152.5,75,80,82.5,82.5,175,190,195,195,430,14,SBD,Raw,
Iryna Kis,Ukraine,F,1993,29,Open,76,72.83,145,152.5,157.5,157.5,75,82.5,87.5,87.5,160,170,-180,170,415,15,SBD,Raw,
Małgorzata Piłat,Poland,F,1994,28,Open,76,74.26,132.5,140,145,145,75,80,-85,80,165,175,-180,175,400,16,SBD,Raw,
Nino Tchrikishvili,Georgia,F,1991,31,Open,76,74.93,160,167.5,170,170,-100,-100,-100,,222.5,227.5,-232.5,227.5,,DQ,SBD,Raw,
Agata Sitko,Poland,F,2002,20,Open,84,79.68,-190,190,202.5,202.5,145,-156,-156,145,220,235,-242.5,235,582.5,1,SBD,Raw,
Kristín Þórhallsdóttir,Iceland,F,1984,38,Open,84,83.39,217.5,-227.5,-227.5,217.5,112.5,120,-125,120,222.5,237.5,-245.5,237.5,575,2,SBD,Raw,
Ziana Azariah,UK,F,1997,25,Open,84,83.84,192.5,202.5,207.5,207.5,92.5,97.5,100,100,225,237.5,246,246,553.5,3,SBD,Raw,
Temitope Nuga,UK,F,1985,37,Open,84,78.43,-185,185,-190,185,95,100,105,105,210,220,227.5,227.5,517.5,4,SBD,Raw,
Jenny Heyerdahl Brynhi,Norway,F,1993,29,Open,84,82.97,190,197.5,-202.5,197.5,105,110,115,115,187.5,195,200,200,512.5,5,SBD,Raw,
Katja Jørgensen,Denmark,F,1988,34,Open,84,81.28,167.5,177.5,182.5,182.5,100,105,107.5,107.5,205,220,-227.5,220,510,6,SBD,Raw,
Ellinor Svensson,Sweden,F,1986,36,Open,84,82.94,175,187.5,195,195,90,95,-100,95,200,210,215,215,505,7,SBD,Raw,
Ida Sjölander,Finland,F,1996,26,Open,84,81.97,160,-170,170,170,115,120,-122.5,120,170,185,-192.5,185,475,8,SBD,Raw,
Anna Kronborg Haar,Denmark,F,1993,29,Open,84,82.38,170,-180,180,180,85,90,92.5,92.5,170,177.5,182.5,182.5,455,9,SBD,Raw,
Jessica Butera,Switzerland,F,1992,30,Open,84,83.23,-165,165,172.5,172.5,90,97.5,-100,97.5,170,177.5,-182.5,177.5,447.5,10,SBD,Raw,
Raphael Ubong Idem,Hungary,F,1994,28,Open,84,82.59,165,-175,-185,165,92.5,95,97.5,97.5,170,182.5,-195,182.5,445,11,SBD,Raw,
Beatrice Narizzano,Belgium,F,1990,32,Open,84,80.9,140,145,150,150,82.5,85,87.5,87.5,155,162.5,165,165,402.5,12,SBD,Raw,
Kristina Cvjetičanin,Serbia,F,1994,28,Open,84,83.96,130,135,140,140,67.5,72.5,-75,72.5,135,142.5,150,150,362.5,13,SBD,Raw,
Sonita Muluh,Belgium,F,1996,26,Open,84+,118.11,240,257.5,270,270,125,132.5,137.5,137.5,235,-253.5,253.5,253.5,661,1,SBD,Raw,
Emelie Leach,Sweden,F,1993,29,Open,84+,149.15,235,245,252.5,252.5,135,140,142.5,142.5,237.5,-253.5,254,254,649,2,SBD,Raw,
Amélie Mierger,France,F,1992,30,Open,84+,146.69,242.5,250,252.5,252.5,157.5,162.5,-163.5,162.5,232.5,-237.5,-237.5,232.5,647.5,3,SBD,Raw,
Anna-Lena Bellqvist,Sweden,F,1987,35,Open,84+,147,240,-247.5,247.5,247.5,115,120,125,125,210,222.5,235,235,607.5,4,SBD,Raw,
Isabel Carina Nakken Cloin,Norway,F,1988,34,Open,84+,114.24,205,215,222.5,222.5,112.5,120,125,125,220,240,-251,240,587.5,5,SBD,Raw,
Annina Luotonen,Finland,F,1986,36,Open,84+,132.07,-180,180,190,190,120,-122.5,-122.5,120,220,-230,-230,220,530,6,SBD,Raw,
Sarah Gardiner,Ireland,F,1997,25,Open,84+,113.13,182.5,192.5,200,200,110,115,120,120,190,205,-212.5,205,525,7,SBD,Raw,
Clare Patterson,Ireland,F,1984,38,Open,84+,98.91,-152.5,152.5,-162.5,152.5,127.5,132.5,137.5,137.5,157.5,165,170,170,460,8,SBD,Raw,
Jovana Radovanov,Serbia,F,1991,31,Open,84+,138.95,140,147.5,-155,147.5,75,80,-85,80,170,182.5,192.5,192.5,420,9,SBD,Raw,
Zuzana Bitterová,Czechia,F,1984,38,Open,84+,110.52,-180,-180,-180,,90,95,-97.5,95,160,170,-175,170,,DQ,SBD,Raw,
Khrystyna Ulianyk,Ukraine,F,2005,17,Sub-Juniors,43,38.98,60,65,-70,65,37.5,40,42.5,42.5,70,-82.5,82.5,82.5,190,1,SBD,Raw,
Zuzanna Znojek,Poland,F,2008,14,Sub-Juniors,43,43,45,52.5,57.5,57.5,30,35,37.5,37.5,65,72.5,82.5,82.5,177.5,2,SBD,Raw,
Valeriia Mustafina,Ukraine,F,2004,18,Sub-Juniors,47,46.6,80,87.5,-92.5,87.5,57.5,-60,-60,57.5,125,135,-140.5,135,280,1,SBD,Raw,
Nikola Tomsova,Czechia,F,2007,15,Sub-Juniors,47,46.46,85,90,-95,90,42.5,47.5,50,50,95,102.5,107.5,107.5,247.5,2,SBD,Raw,
Marcelina Owsiany,Poland,F,2004,18,Sub-Juniors,47,46.92,70,77.5,-82.5,77.5,47.5,50,-52.5,50,-100,100,105,105,232.5,3,SBD,Raw,
Zuzanna Błaszczyńska,Poland,F,2006,16,Sub-Juniors,47,46.98,-80,80,-82.5,80,45,47.5,-50,47.5,90,95,-102.5,95,222.5,4,SBD,Raw,
Wiktoria Zapotoczna,Poland,F,2004,18,Sub-Juniors,52,51.6,110,115,-120,115,60,65,-67.5,65,145,156,-160,156,336,1,SBD,Raw,
Wiktoria Cichocka,Poland,F,2004,18,Sub-Juniors,52,51.35,100,107.5,112.5,112.5,62.5,67.5,-72.5,67.5,115,122.5,130,130,310,2,SBD,Raw,
Katriin Sildnik,Estonia,F,2004,18,Sub-Juniors,52,51.95,92.5,100,102.5,102.5,52.5,57.5,62.5,62.5,115,125,132.5,132.5,297.5,3,SBD,Raw,
Tetiana Petrenko,Ukraine,F,2007,15,Sub-Juniors,52,51.75,85,-92.5,-95,85,60,65,67.5,67.5,125,135,-145,135,287.5,4,SBD,Raw,
Fiorella Merandino,Belgium,F,2005,17,Sub-Juniors,52,50.6,95,-100,-105,95,47.5,50,52.5,52.5,127.5,-135,-135,127.5,275,5,SBD,Raw,
Hannah Karpal,UK,F,2006,16,Sub-Juniors,52,51.47,-77.5,82.5,85,85,45,50,-52.5,50,115,120,125,125,260,6,SBD,Raw,
Bianca Todorescu,Romania,F,2006,16,Sub-Juniors,52,50.25,77.5,85,87.5,87.5,57.5,60,-62.5,60,95,102.5,107.5,107.5,255,7,SBD,Raw,
Giovanna Auletta,Italy,F,2004,18,Sub-Juniors,57,56.81,125,-132.5,135,135,67.5,70,72.5,72.5,140,155,163,163,370.5,1,SBD,Raw,
Eva Strgar,Slovenia,F,2005,17,Sub-Juniors,57,56.26,122.5,-130,130,130,62.5,67.5,-70,67.5,137.5,145,155,155,352.5,2,SBD,Raw,
Victoria Hart,UK,F,2004,18,Sub-Juniors,57,55.8,125,132.5,-135,132.5,70,75,-77.5,75,125,132.5,-137.5,132.5,340,3,SBD,Raw,
Martyna Janaszek,Poland,F,2005,17,Sub-Juniors,57,55.38,90,97.5,-100,97.5,60,65,67.5,67.5,95,102.5,110,110,275,4,SBD,Raw,
Michaela Pustkova,Czechia,F,2004,18,Sub-Juniors,57,56.21,95,-100,-100,95,42.5,-45,-45,42.5,90,95,100,100,237.5,5,SBD,Raw,
Iro Koukouridou,Greece,F,2005,17,Sub-Juniors,57,56.74,80,-85,-87.5,80,30,35,-40,35,87.5,95,100,100,215,6,SBD,Raw,
Sofiya Stanko,Ukraine,F,2006,16,Sub-Juniors,57,57,-117.5,-122.5,-122.5,,-85,85,87.5,87.5,115,,,115,,DQ,SBD,Raw,
Juuli Kostian,Finland,F,2006,16,Sub-Juniors,63,62.4,145,152.5,-155,152.5,90,95,-98.5,95,147.5,155,162.5,162.5,410,1,SBD,Raw,
Skye Moore,UK,F,2005,17,Sub-Juniors,63,62.55,142.5,147.5,-152.5,147.5,80,82.5,-85,82.5,145,152.5,157.5,157.5,387.5,2,SBD,Raw,
Alba Domingo Venegas,Spain,F,2007,15,Sub-Juniors,63,60.04,107.5,110,115,115,67.5,70,-72.5,70,145,152.5,157.5,157.5,342.5,3,SBD,Raw,
Ninni Kopola,Finland,F,2007,15,Sub-Juniors,63,59.46,-105,107.5,112.5,112.5,65,70,75,75,105,112.5,122.5,122.5,310,4,SBD,Raw,
Elien Magielse,Belgium,F,2004,18,Sub-Juniors,63,61.26,-120,120,125,125,57.5,60,62.5,62.5,112.5,117.5,120,120,307.5,5,SBD,Raw,
Veronika Cyrany,Czechia,F,2005,17,Sub-Juniors,63,63,105,110,115,115,52.5,57.5,-60,57.5,-135,135,-145,135,307.5,6,SBD,Raw,
Aneta Hochsteigerova,Czechia,F,2005,17,Sub-Juniors,63,61.1,112.5,117.5,-122.5,117.5,52.5,55,-57.5,55,120,-130,-130,120,292.5,7,SBD,Raw,
Kaja Stabulewska,Poland,F,2004,18,Sub-Juniors,69,66.92,145,152.5,-157.5,152.5,101.5,107.5,111,111,-190,190,-200,190,453.5,1,SBD,Raw,
Svatava Hanykyrova,Czechia,F,2004,18,Sub-Juniors,69,68.2,147.5,152.5,157.5,157.5,65,70,-72.5,70,165,170,-172.5,170,397.5,2,SBD,Raw,
Oona Kujala,Finland,F,2004,18,Sub-Juniors,69,67.79,147.5,-152.5,-152.5,147.5,80,85,-87.5,85,152.5,162.5,-167.5,162.5,395,3,SBD,Raw,
Amelie Valentova,Czechia,F,2004,18,Sub-Juniors,69,68.98,135,142.5,-147.5,142.5,62.5,-67.5,67.5,67.5,150,160,165,165,375,4,SBD,Raw,
Oleksandra Borshch,Ukraine,F,2004,18,Sub-Juniors,69,66.83,135,140,145,145,72.5,-77.5,77.5,77.5,140,-152.5,-152.5,140,362.5,5,SBD,Raw,
Andrea Morillas Tabernero,Spain,F,2004,18,Sub-Juniors,69,67.7,115,122.5,-127.5,122.5,82.5,87.5,-92.5,87.5,145,152.5,-157.5,152.5,362.5,6,SBD,Raw,
Asia Franchini,Italy,F,2004,18,Sub-Juniors,76,73.12,160,167.5,171,171,-95,95,-97.5,95,175,185,-192.5,185,451,1,SBD,Raw,
Elena Mijatović,Serbia,F,2004,18,Sub-Juniors,76,73.97,122.5,132.5,137.5,137.5,72.5,80,-85,80,135,145,155,155,372.5,2,SBD,Raw,
Ella Smallcombe,UK,F,2004,18,Sub-Juniors,76,74.25,120,127.5,-130,127.5,55,60,62.5,62.5,-142.5,147.5,152.5,152.5,342.5,3,SBD,Raw,
Justyna Pietrykowska,Poland,F,2005,17,Sub-Juniors,76,74.17,100,107.5,112.5,112.5,77.5,82.5,85,85,130,135,-140,135,332.5,4,SBD,Raw,
Adéla Čtveráková,Czechia,F,2004,18,Sub-Juniors,76,74.15,110,117.5,122.5,122.5,60,65,-70,65,130,140,-150,140,327.5,5,SBD,Raw,
Fulya Cankurt,Turkey,F,2004,18,Sub-Juniors,76,73.06,-100,100,115,115,60,67.5,-70,67.5,-130,130,142.5,142.5,325,6,SBD,Raw,
Lara Hinz,Germany,F,2004,18,Sub-Juniors,84,82.6,165,-175,-175,165,80,85,-87.5,85,175,182.5,185,185,435,1,SBD,Raw,
Rohtla Karolin,Estonia,F,2004,18,Sub-Juniors,84,83.26,155,-165,168,168,65,-72.5,-75,65,125,140,150,150,383,2,SBD,Raw,
Gianna Claessens,Netherlands,F,2004,18,Sub-Juniors,84,82.3,125,132.5,135,135,65,70,-72.5,70,167.5,175,-180,175,380,3,SBD,Raw,
Marketa Vrabcova,Czechia,F,2004,18,Sub-Juniors,84,82.84,137.5,147.5,157.5,157.5,65,70,75,75,135,142.5,-150,142.5,375,4,SBD,Raw,
Magdalena Tomczak,Poland,F,2004,18,Sub-Juniors,84,76.18,100,110,-117.5,110,50,52.5,-60,52.5,120,130,-140,130,292.5,5,SBD,Raw,
Marelin Jüriado,Estonia,F,2006,16,Sub-Juniors,84+,84.79,135,142.5,150,150,80,85,87.5,87.5,165,172.5,-175,172.5,410,1,SBD,Raw,
Reda Laurinavičiūtė,Lithuania,F,2007,15,Sub-Juniors,84+,84.41,130,140,145,145,67.5,72.5,75,75,150,160,165,165,385,2,SBD,Raw,
Siiri Tossavainen,Finland,F,2004,18,Sub-Juniors,84+,86.66,122.5,135,-142.5,135,60,65,67.5,67.5,155,167.5,-175,167.5,370,3,SBD,Raw,
Valerija Petrovaitė,Lithuania,F,2005,17,Sub-Juniors,84+,104.34,150,160,167.5,167.5,67.5,72.5,75,75,115,127.5,-135,127.5,370,4,SBD,Raw,
Konstantia Christodoulou,Cyprus,F,2005,17,Sub-Juniors,84+,111.35,110,120,127.5,127.5,55,62.5,-75,62.5,120,130,-137.5,130,320,5,SBD,Raw,
Pille Pihlik,Estonia,F,2005,17,Sub-Juniors,84+,94.59,110,-115,120,120,55,60,65,65,110,120,-135,120,305,6,SBD,Raw,
Andrei Georgescu,Romania,M,2002,20,Juniors,53,52.9,130,135,140,140,75,80,85,85,182.5,192.5,200,200,425,1,SBD,Raw,
Iván Campano Díaz,Spain,M,2001,21,Juniors,59,58.57,-182.5,190,-195,190,115,120,-122.5,120,-240,-240,240,240,550,1,SBD,Raw,
Viliam Kováč,Czechia,M,2000,22,Juniors,59,59,170,182.5,187.5,187.5,112.5,122.5,-127.5,122.5,210,225,-242.5,225,535,2,SBD,Raw,
Kemal Ergin,Netherlands,M,2002,20,Juniors,59,58.68,160,167.5,170,170,120,-127.5,127.5,127.5,-180,182.5,195,195,492.5,3,SBD,Raw,
Cristian Moise,Romania,M,2001,21,Juniors,59,58.11,160,170,177.5,177.5,110,115,-120,115,175,185,192.5,192.5,485,4,SBD,Raw,
Hermann Charbonnier,France,M,2001,21,Juniors,59,58.59,170,177.5,182.5,182.5,115,120,-125,120,140,160,-177.5,160,462.5,5,SBD,Raw,
Sewiol Dominik,Poland,M,2001,21,Juniors,59,58.26,145,152.5,-157.5,152.5,80,82.5,-85,82.5,175,180,185,185,420,6,SBD,Raw,
Arthur Hauet,France,M,2001,21,Juniors,66,65.97,-200,200,-202.5,200,152.5,157.5,162.5,162.5,217.5,227.5,235,235,597.5,1,SBD,Raw,
Tenho Talvensaari,Finland,M,1999,23,Juniors,66,65.76,175,185,192.5,192.5,117.5,122.5,127.5,127.5,212.5,-225,240,240,560,2,SBD,Raw,
Hubert Zaręba,Poland,M,1999,23,Juniors,66,65.41,190,205,210,210,115,125,132.5,132.5,-215,-215,215,215,557.5,3,SBD,Raw,
Alessio Pavone,Belgium,M,2002,20,Juniors,66,65.96,185,192.5,200,200,125,130,-135,130,205,220,-225,220,550,4,SBD,Raw,
Phenyo Botlhoko,UK,M,2000,22,Juniors,66,65.4,172.5,177.5,182.5,182.5,112.5,117.5,-122.5,117.5,230,245,-257.5,245,545,5,SBD,Raw,
Tyrese Zichem,Netherlands,M,2002,20,Juniors,66,65.88,190,-202.5,-202.5,190,105,112.5,-117.5,112.5,235,-247.5,-247.5,235,537.5,6,SBD,Raw,
Radovan Kovac,Slovakia,M,2000,22,Juniors,66,65.7,175,190,-200,190,112.5,120,-125,120,200,225,-240,225,535,7,SBD,Raw,
Carl Johansson,Sweden,M,2000,22,Juniors,74,73.49,235,247.5,252.5,252.5,160,167.5,170,170,270,280,308.5,308.5,731,1,SBD,Raw,
Alberto Herraiz Francés,Spain,M,2000,22,Juniors,74,72.3,242.5,255,-258.5,255,155,160,165,165,267.5,277.5,-285,277.5,697.5,2,SBD,Raw,
Marcos Albaladejo Castro,Spain,M,2001,21,Juniors,74,73.27,232.5,242.5,-250,242.5,-135,135,140,140,265,277.5,285,285,667.5,3,SBD,Raw,
Antoine Darmon,UK,M,1999,23,Juniors,74,73.91,240,250,257.5,257.5,-140,140,145,145,265,-277.5,-277.5,265,667.5,4,SBD,Raw,
Nicolai Rakowski,Germany,M,1999,23,Juniors,74,72.95,237.5,247.5,255,255,137.5,142.5,-145,142.5,237.5,250,262.5,262.5,660,5,SBD,Raw,
Rafał Łazicki,Poland,M,1999,23,Juniors,74,73.78,225,235,237.5,237.5,140,150,-152.5,150,235,255,-262.5,255,642.5,6,SBD,Raw,
Di Ke Wu,Netherlands,M,1999,23,Juniors,74,73.42,192.5,205,-212.5,205,157.5,165,167.5,167.5,242.5,-255,-260,242.5,615,7,SBD,Raw,
Kamil Światły,Poland,M,1999,23,Juniors,74,73.89,215,222.5,-227.5,222.5,137.5,142.5,-147.5,142.5,237.5,-247.5,-252.5,237.5,602.5,8,SBD,Raw,
Krisztián Posta,Hungary,M,2000,22,Juniors,74,73.73,207.5,-217.5,-225,207.5,135,142.5,-147.5,142.5,235,250,,250,600,9,SBD,Raw,
Adam Bernolak,Slovakia,M,2002,20,Juniors,74,73.4,202.5,207.5,-210,207.5,142.5,-150,-150,142.5,232.5,-240,,232.5,582.5,10,SBD,Raw,
Valentin Kolev,Bulgaria,M,2001,21,Juniors,74,73.22,-185,185,-195,185,105,-115,-125,105,250,265,-277.5,265,555,11,SBD,Raw,
Tuur Verstrepen,Belgium,M,2002,20,Juniors,74,73.06,202.5,210,-212.5,210,-140,-140,-140,,242.5,-252.5,-252.5,242.5,,DQ,SBD,Raw,
Rokas Burba,Lithuania,M,2001,21,Juniors,74,73.95,-222.5,-222.5,-222.5,,150,155,157.5,157.5,220,,,220,,DQ,SBD,Raw,
Edoardo Mazzucchielli,Italy,M,1999,23,Juniors,83,82.65,280,295,308,308,162.5,167.5,170,170,300,315,-320,315,793,1,SBD,Raw,
Nathan Gevao,UK,M,2000,22,Juniors,83,82.59,262.5,277.5,-285,277.5,165,172.5,177.5,177.5,302.5,-317.5,317.5,317.5,772.5,2,SBD,Raw,
Guillaume Parisot,France,M,1999,23,Juniors,83,82.76,255,265,270,270,170,177.5,180,180,295,305,310,310,760,3,SBD,Raw,
Andrea Orlandi,Italy,M,2001,21,Juniors,83,82.89,265,280,285,285,180,190,-192.5,190,265,-280,285,285,760,4,SBD,Raw,
José López Llorente,Spain,M,1999,23,Juniors,83,81.38,260,270,275,275,170,172.5,-175,172.5,255,270,-285,270,717.5,5,SBD,Raw,
Luke Wilson #2,Isle of Man,M,1999,23,Juniors,83,82.81,257.5,267.5,272.5,272.5,155,162.5,165,165,260,275,-285,275,712.5,6,SBD,Raw,
Simen Johnson Myrvold,Norway,M,2000,22,Juniors,83,82.02,230,242.5,-250,242.5,182.5,190,195,195,225,240,247.5,247.5,685,7,SBD,Raw,
Sebastian Bruvik,Norway,M,2000,22,Juniors,83,82.3,257.5,-265,265,265,-142.5,142.5,150,150,250,260,270,270,685,8,SBD,Raw,
Jakub Micał,Poland,M,1999,23,Juniors,83,82.64,227.5,235,240,240,145,150,155,155,290,-305,-305,290,685,9,SBD,Raw,
Pablo Hernaez Esteban,Spain,M,2000,22,Juniors,83,82.7,-252.5,260,-262.5,260,-132.5,-132.5,132.5,132.5,265,287.5,-295,287.5,680,10,SBD,Raw,
Patrik Kasuba,Slovakia,M,2001,21,Juniors,83,82.31,235,247.5,-257.5,247.5,145,152.5,155,155,-255,-270,270,270,672.5,11,SBD,Raw,
Joery Wesseling,Netherlands,M,1999,23,Juniors,83,82.93,-240,-240,240,240,145,150,-152.5,150,257.5,270,277.5,277.5,667.5,12,SBD,Raw,
Karel Rada #1,Czechia,M,2001,21,Juniors,83,82.78,230,240,-245,240,130,140,142.5,142.5,260,275,-285,275,657.5,13,SBD,Raw,
Jebbe Van Reeth,Belgium,M,1999,23,Juniors,83,82.77,220,232.5,-237.5,232.5,142.5,150,-152.5,150,255,267.5,-280,267.5,650,14,SBD,Raw,
Juha Järvinen,Finland,M,1999,23,Juniors,83,83,235,-242.5,-250,235,135,142.5,-147.5,142.5,255,270,-275,270,647.5,15,SBD,Raw,
Sebastiaan Jacobs,Belgium,M,1999,23,Juniors,83,82.64,205,217.5,225,225,135,140,-145,140,235,250,257.5,257.5,622.5,16,SBD,Raw,
Tomas Lynch,Ireland,M,1999,23,Juniors,83,82.07,200,212.5,220,220,132.5,140,145,145,235,245,-252.5,245,610,17,SBD,Raw,
Ali Carfi,Turkey,M,2002,20,Juniors,83,81.03,190,200,-210,200,140,-142.5,-142.5,140,210,-225,225,225,565,18,SBD,Raw,
Anıl Turgut,Turkey,M,2003,19,Juniors,83,81.67,170,182.5,-185,182.5,117.5,125,-135,125,212.5,-225,-225,212.5,520,19,SBD,Raw,
Richmond Baiden,France,M,2001,21,Juniors,93,92.73,275,292.5,-302.5,292.5,187.5,195,200,200,310,320,-335,320,812.5,1,SBD,Raw,
Andrea Cicero,Italy,M,1999,23,Juniors,93,92.9,275,290,-295,290,185,192.5,195,195,292.5,310,-322.5,310,795,2,SBD,Raw,
Jack Hopkins,UK,M,2003,19,Juniors,93,92.01,252.5,265,272.5,272.5,175,182.5,190,190,290,305,317.5,317.5,780,3,SBD,Raw,
Yulong Li #1,Sweden,M,2000,22,Juniors,93,90.41,280,292.5,-297.5,292.5,-185,-185,185,185,290,300,-305,300,777.5,4,SBD,Raw,
Ion Calmic,Ireland,M,2001,21,Juniors,93,92.52,255,270,280,280,165,175,180,180,280,295,310,310,770,5,SBD,Raw,
Benjamin Rastum,Norway,M,1999,23,Juniors,93,92.87,257.5,272.5,282.5,282.5,167.5,177.5,-180,177.5,260,282.5,-290,282.5,742.5,6,SBD,Raw,
Alfredo Maceiras Castro,Spain,M,1999,23,Juniors,93,92.57,247.5,262.5,-270,262.5,155,160,162.5,162.5,295,310,-320,310,735,7,SBD,Raw,
Isak Asperud,Norway,M,2002,20,Juniors,93,90.39,250,265,275,275,177.5,187.5,-190,187.5,257.5,-270,,257.5,720,8,SBD,Raw,
Andrew Roe,Ireland,M,2001,21,Juniors,93,91.3,245,260,267.5,267.5,165,172.5,177.5,177.5,240,260,-270,260,705,9,SBD,Raw,
Lars Lukeš,Czechia,M,1999,23,Juniors,93,92.84,230,240,250,250,145,-152.5,152.5,152.5,280,295,-300,295,697.5,10,SBD,Raw,
Nikolas Stylianou,Poland,M,1999,23,Juniors,93,92.11,252.5,-262.5,262.5,262.5,135,140,142.5,142.5,285,-300,-300,285,690,11,SBD,Raw,
Jakub Daněk,Czechia,M,2000,22,Juniors,93,90.72,240,250,-257.5,250,150,157.5,160,160,265,275,-280,275,685,12,SBD,Raw,
Gerlai Andras,Hungary,M,2000,22,Juniors,93,85.88,215,225,235,235,155,162.5,-165,162.5,245,260,275,275,672.5,13,SBD,Raw,
Brandon Jacobs,Belgium,M,2000,22,Juniors,93,92.79,240,250,257.5,257.5,155,162.5,165,165,225,245,-247.5,245,667.5,14,SBD,Raw,
Remi Tregan,Switzerland,M,2002,20,Juniors,93,88.4,225,237.5,247.5,247.5,135,140,145,145,247.5,260,272.5,272.5,665,15,SBD,Raw,
Remu Rokka,Finland,M,1999,23,Juniors,93,92.79,247.5,257.5,-265,257.5,142.5,147.5,-152.5,147.5,245,252.5,-257.5,252.5,657.5,16,SBD,Raw,
Aleksander Koszewski,Poland,M,2002,20,Juniors,93,91,205,215,-220,215,165,170,-172.5,170,270,-282.5,-282.5,270,655,17,SBD,Raw,
Tim Hardegger,Switzerland,M,1999,23,Juniors,93,91.28,-225,-225,225,225,140,145,-150,145,265,280,-287.5,280,650,18,SBD,Raw,
Alvar Helgason,Iceland,M,2002,20,Juniors,93,91.69,220,230,-240,230,140,-147.5,150,150,250,265,-277.5,265,645,19,SBD,Raw,
Unlusoy Abdullah,Belgium,M,2003,19,Juniors,93,92.29,210,-215,215,215,155,-160,-160,155,260,275,-285,275,645,20,SBD,Raw,
Javier Rojas de Dios,Spain,M,2000,22,Juniors,93,91.81,-260,-270,-270,,-165,165,-172.5,165,-270,-270,,,,DQ,SBD,Raw,
John Wortel,Netherlands,M,2000,22,Juniors,93,92.11,252.5,260,-265,260,172.5,177.5,-182.5,177.5,-290,-290,-290,,,DQ,SBD,Raw,
Antonio Pérez Barros,Spain,M,2001,21,Juniors,105,104.76,300,317.5,-325,317.5,157.5,165,167.5,167.5,305,320,332.5,332.5,817.5,1,SBD,Raw,
Melvin Conteh,Ireland,M,1999,23,Juniors,105,100.23,257.5,275,285,285,200,-210,210,210,295,310,320,320,815,2,SBD,Raw,
Kristóf Bence Budai,Hungary,M,1999,23,Juniors,105,104.84,260,280,297.5,297.5,170,187.5,195,195,-280,305,320,320,812.5,3,SBD,Raw,
Novak Lukić,Serbia,M,1999,23,Juniors,105,104.02,295,307.5,-312.5,307.5,172.5,180,185,185,302.5,312.5,-315,312.5,805,4,SBD,Raw,
Lex van Haaren,Netherlands,M,1999,23,Juniors,105,103.45,295,305,310,310,-165,167.5,170,170,290,305,-310,305,785,5,SBD,Raw,
Michael Pierides,UK,M,1999,23,Juniors,105,104.38,267.5,280,290,290,180,187.5,190,190,282.5,300,-307.5,300,780,6,SBD,Raw,
Andrew Blackwood,Ireland,M,2001,21,Juniors,105,103.36,260,275,282.5,282.5,157.5,162.5,170,170,300,315,325,325,777.5,7,SBD,Raw,
Knut Einar Skaar,Norway,M,2001,21,Juniors,105,103.54,255,267.5,272.5,272.5,175,185,192.5,192.5,280,295,310,310,775,8,SBD,Raw,
Lewis Bennett #1,UK,M,1999,23,Juniors,105,101.83,260,275,-290,275,190,200,202.5,202.5,280,295,-307.5,295,772.5,9,SBD,Raw,
Mats Høylo Kjøllesdal,Norway,M,2001,21,Juniors,105,104.86,260,275,282.5,282.5,175,180,185,185,275,295,305,305,772.5,10,SBD,Raw,
Riccardo Montanelli Eccher,Italy,M,2000,22,Juniors,105,100.15,-270,-270,270,270,150,160,167.5,167.5,280,305,325,325,762.5,11,SBD,Raw,
Cseszko Krisztian,Hungary,M,1999,23,Juniors,105,104.27,247.5,260,265,265,162.5,167.5,-172.5,167.5,300,320,327.5,327.5,760,12,SBD,Raw,
Nino van Rikxoort,Netherlands,M,2000,22,Juniors,105,103.9,235,245,252.5,252.5,177.5,187.5,-195,187.5,282.5,297.5,307.5,307.5,747.5,13,SBD,Raw,
Patrik Tomko,Slovakia,M,1999,23,Juniors,105,104.01,227.5,240,247.5,247.5,165,172.5,175,175,290,310,322.5,322.5,745,14,SBD,Raw,
Vincent Moser,Austria,M,1999,23,Juniors,105,103.25,245,252.5,-260,252.5,170,177.5,180,180,-270,280,300,300,732.5,15,SBD,Raw,
Väinö Leppäkoski,Finland,M,2003,19,Juniors,105,104.58,230,242.5,255,255,160,167.5,-172.5,167.5,260,280,300,300,722.5,16,SBD,Raw,
Vlad Trif,Romania,M,2002,20,Juniors,105,104.03,250,-262.5,-262.5,250,130,142.5,-152.5,142.5,250,255,260,260,652.5,17,SBD,Raw,
Robin Neyt,Belgium,M,1999,23,Juniors,105,105,227.5,240,247.5,247.5,140,145,150,150,240,255,-265,255,652.5,18,SBD,Raw,
Anton Wasser,Sweden,M,2000,22,Juniors,120,118.95,-320,-320,320,320,200,210,212.5,212.5,292.5,302.5,310,310,842.5,1,SBD,Raw,
Anders Broeten Lillemoe,Norway,M,1999,23,Juniors,120,119.41,275,290,-300,290,162.5,170,172.5,172.5,325,355,368,368,830.5,2,SBD,Raw,
Szilárd Bereczki-Király,Hungary,M,1999,23,Juniors,120,114.45,290,310,-315,310,200,215,-220,215,290,305,-317.5,305,830,3,SBD,Raw,
Taras Melnichuk,Ukraine,M,2001,21,Juniors,120,117.42,280,287.5,-292.5,287.5,212.5,217.5,-222.5,217.5,315,322.5,-327.5,322.5,827.5,4,SBD,Raw,
Kolter Kaarel,Estonia,M,2002,20,Juniors,120,108.8,260,270,280,280,200,-210,212.5,212.5,290,310,320,320,812.5,5,SBD,Raw,
Sebastian Stanek,Poland,M,1999,23,Juniors,120,118.14,-285,285,295,295,175,182.5,187.5,187.5,315,327.5,-335,327.5,810,6,SBD,Raw,
Jakub Šigut,Czechia,M,1999,23,Juniors,120,119.55,275,-290,290,290,157.5,165,167.5,167.5,315,-342.5,342.5,342.5,800,7,SBD,Raw,
Mark Stell,Ireland,M,1999,23,Juniors,120,107.62,230,250,265,265,185,200,-202.5,200,260,280,300,300,765,8,SBD,Raw,
Geert Vroonen,Belgium,M,2002,20,Juniors,120,113.28,257.5,265,-272.5,265,175,185,192.5,192.5,285,305,-310,305,762.5,9,SBD,Raw,
Alejandro Núñez Padial,Spain,M,2002,20,Juniors,120,118.74,-277.5,277.5,285,285,165,170,172.5,172.5,285,305,-315,305,762.5,10,SBD,Raw,
Daniel Holmstedt,Finland,M,1999,23,Juniors,120,118.97,265,275,280,280,167.5,172.5,175,175,275,-285,287.5,287.5,742.5,11,SBD,Raw,
Filip Porteš,Czechia,M,2000,22,Juniors,120,118,265,280,-287.5,280,172.5,177.5,180,180,280,-290,-290,280,740,12,SBD,Raw,
Voitto Virtanen,Finland,M,1999,23,Juniors,120,117.05,-270,270,277.5,277.5,160,167.5,172.5,172.5,280,-292.5,-292.5,280,730,13,SBD,Raw,
Conor Kiernan,Ireland,M,2000,22,Juniors,120,110.2,235,247.5,-252.5,247.5,165,-175,175,175,260,282.5,305,305,727.5,14,SBD,Raw,
Mario Kang,Estonia,M,2001,21,Juniors,120,119.97,230,245,255,255,165,175,182.5,182.5,245,270,285,285,722.5,15,SBD,Raw,
Mircea Moise,Romania,M,1999,23,Juniors,120,117.82,250,262.5,-270,262.5,165,172.5,-177.5,172.5,260,-270,,260,695,16,SBD,Raw,
Marvin Kager,Austria,M,2002,20,Juniors,120,116.98,220,-235,235,235,155,160,165,165,220,,,220,620,17,SBD,Raw,
İlkay Can Parlak,Turkey,M,2002,20,Juniors,120,117.9,200,215,-222.5,215,140,150,-155,150,240,-257.5,-257.5,240,605,18,SBD,Raw,
Lewis Kelly,UK,M,2000,22,Juniors,120,117.54,-275,-275,-275,,165,175,-182.5,175,275,295,305,305,,DQ,SBD,Raw,
Temur Samkharadze,Georgia,M,2001,21,Juniors,120+,158.65,370,403.5,,403.5,200,215,225,225,350,382.5,-400,382.5,1011,1,SBD,Raw,
Alexander Renner,Austria,M,1999,23,Juniors,120+,151.54,282.5,307.5,317.5,317.5,212.5,222.5,227.5,227.5,300,320,335,335,880,2,SBD,Raw,
Nuutti Mansukoski,Finland,M,2000,22,Juniors,120+,153.72,280,307.5,320,320,190,200,205,205,305,322.5,-357.5,322.5,847.5,3,SBD,Raw,
Kristian Eek Haugen,Norway,M,2001,21,Juniors,120+,130.72,282.5,297.5,305,305,212.5,222.5,230,230,292.5,310,-320,310,845,4,SBD,Raw,
Martin Valenta,Czechia,M,2002,20,Juniors,120+,141.75,305,315,325,325,180,-190,-190,180,300,310,-320,310,815,5,SBD,Raw,
Andrii Detko,Ukraine,M,1999,23,Juniors,120+,164.64,280,295,305,305,177.5,185,190,190,282.5,295,-322.5,295,790,6,SBD,Raw,
Maciej Samborski,Poland,M,2001,21,Juniors,120+,132.66,275,-290,-290,275,180,190,-195,190,290,300,-307.5,300,765,7,SBD,Raw,
Artem Usov,Czechia,M,2000,22,Juniors,120+,140.63,280,300,-315,300,190,200,,200,200,,,200,700,8,SBD,Raw,
Antoine Garcia,France,M,1995,27,Open,59,58.47,210,215,-217.5,215,120,125,127.5,127.5,230,242.5,-257.5,242.5,585,1,SBD,Raw,
Dariusz Wszoła,Poland,M,1978,44,Open,59,58.86,190,200,207.5,207.5,137.5,142.5,145,145,190,197.5,-235,197.5,550,2,SBD,Raw,
Julien Gutierrez,France,M,1996,26,Open,59,58.71,182.5,-190,-190,182.5,110,115,117.5,117.5,220,-232.5,-232.5,220,520,3,SBD,Raw,
Bartłomiej Stania,Poland,M,1993,29,Open,59,58.74,150,,,150,80,,,80,210,-225,-225,210,440,4,SBD,Raw,
Álvaro Fernández Arcas,Spain,M,1989,33,Open,66,65.29,212.5,220,227.5,227.5,140,145,150,150,227.5,237.5,242.5,242.5,620,1,SBD,Raw,
Valentin Fruchard,France,M,1998,24,Open,66,65.9,212.5,222.5,227.5,227.5,147.5,-155,-155,147.5,225,235,-247.5,235,610,2,SBD,Raw,
Joel Christopher Catena,Austria,M,1996,26,Open,66,65.05,195,205,-215,205,135,142.5,145,145,230,242.5,-250,242.5,592.5,3,SBD,Raw,
Lorenzo Haarloo,Netherlands,M,1987,35,Open,66,65.86,172.5,182.5,-190,182.5,125,132.5,137.5,137.5,245,255,-275,255,575,4,SBD,Raw,
Gheorghe Moise,Romania,M,1995,27,Open,66,65.5,197.5,212.5,-222.5,212.5,130,137.5,145,145,180,195,205,205,562.5,5,SBD,Raw,
Gintaras Blėdis,Lithuania,M,1994,28,Open,66,65.09,195,-205,210,210,115,120,-122.5,120,205,210,215,215,545,6,SBD,Raw,
Hilmar Símonarson,Iceland,M,1994,28,Open,66,65.75,180,190,197.5,197.5,125,130,132.5,132.5,200,-212.5,212.5,212.5,542.5,7,SBD,Raw,
Panagiotis Tarinidis,France,M,1994,28,Open,66,65.83,-242.5,-242.5,-242.5,-242.5,,,,,,,,,,DQ,SBD,Raw,
Eddie Berglund,Sweden,M,1995,27,Open,74,71.65,-247.5,247.5,255,255,205,-212,212,212,245,260,272.5,272.5,739.5,1,SBD,Raw,
Paul Rembauville,France,M,1997,25,Open,74,73.57,260,-270,-270,260,150,155,157.5,157.5,305,312.5,-322.5,312.5,730,2,SBD,Raw,
Alexander Eriksson,Sweden,M,1994,28,Open,74,73.53,225,-242.5,247.5,247.5,167.5,177.5,185,185,282.5,295,-307.5,295,727.5,3,SBD,Raw,
Dawid Kawka,Poland,M,1993,29,Open,74,73.68,245,255,262.5,262.5,165,172.5,-180,172.5,270,282.5,-295,282.5,717.5,4,SBD,Raw,
Kjell Egil Bakkelund,Norway,M,1988,34,Open,74,73.47,210,222.5,227.5,227.5,155,165,170,170,285,295,-305,295,692.5,5,SBD,Raw,
Christos Konstantinou,Cyprus,M,1993,29,Open,74,73.6,230,245,250,250,145,152.5,157.5,157.5,260,277.5,-297.5,277.5,685,6,SBD,Raw,
Matti Christensen,Denmark,M,1995,27,Open,74,73.79,250,-257.5,257.5,257.5,190,195,200,200,215,225,-230,225,682.5,7,SBD,Raw,
Jani Haapamäki,Finland,M,1979,43,Open,74,73.66,-225,230,-235,230,160,167.5,172.5,172.5,265,-287.5,-287.5,265,667.5,8,SBD,Raw,
Remco Sanders,Netherlands,M,1991,31,Open,74,73.32,-225,-225,225,225,150,157.5,-162.5,157.5,-270,270,-287.5,270,652.5,9,SBD,Raw,
Martin Hladík,Czechia,M,1994,28,Open,74,73.85,215,225,-232.5,225,132.5,-137.5,140,140,272.5,285,-297.5,285,650,10,SBD,Raw,
Dmytro Biliak,Ukraine,M,1994,28,Open,74,73.02,227.5,235,242.5,242.5,132.5,137.5,140,140,245,260,-270,260,642.5,11,SBD,Raw,
Jose Manuel Villarubia Tordesillas,Spain,M,1995,27,Open,74,73.51,-227.5,227.5,-240,227.5,142.5,147.5,-150,147.5,265,-280,-280,265,640,12,SBD,Raw,
Jurins Kengamu,UK,M,1988,34,Open,83,82.61,287.5,300,-308.5,300,165,172.5,177.5,177.5,297.5,317.5,322.5,322.5,800,1,SBD,Raw,
Damian Nam,Ireland,M,1994,28,Open,83,82.52,-275,-282.5,287.5,287.5,165,172.5,175,175,295,315,325,325,787.5,2,SBD,Raw,
Asein Enahoro,Hungary,M,1999,23,Open,83,82.87,270,280,-285,280,140,150,-155,150,340,-360,-370.5,340,770,3,SBD,Raw,
Jack Söderberg,Sweden,M,1996,26,Open,83,82.61,255,270,-275,270,180,187.5,190,190,270,285,290,290,750,4,SBD,Raw,
Pijus Alisauskas,Germany,M,1998,24,Open,83,82.9,242.5,257.5,267.5,267.5,172.5,180,182.5,182.5,260,275,-277.5,275,725,5,SBD,Raw,
Yakup Ünal,Turkey,M,1994,28,Open,83,81.63,-255,255,-262.5,255,160,167.5,-170,167.5,300,-310,-317.5,300,722.5,6,SBD,Raw,
Alessandro Messina,Italy,M,1995,27,Open,83,81.9,235,245,-252.5,245,160,-165,-165,160,305,317.5,-325,317.5,722.5,7,SBD,Raw,
Kiril Valchanov,Bulgaria,M,1986,36,Open,83,81.9,-245,265,-272.5,265,145,152.5,-155,152.5,270,290,300,300,717.5,8,SBD,Raw,
Jaime Cortés Heredia,Spain,M,1996,26,Open,83,82.79,220,232.5,240,240,160,170,-175,170,290,305,-315,305,715,9,SBD,Raw,
Elias de Buck,Belgium,M,1996,26,Open,83,82.04,-230,237.5,245,245,165,170,175,175,255,270,280,280,700,10,SBD,Raw,
Mikko Ronkainen,Finland,M,1987,35,Open,83,82.6,-245,245,-260,245,155,165,,165,290,-310,-310,290,700,11,SBD,Raw,
Mads Pedersen,Denmark,M,1989,33,Open,83,82,210,225,235,235,170,180,185,185,250,260,272.5,272.5,692.5,12,SBD,Raw,
Miroslav Nečas,Czechia,M,1993,29,Open,83,82.23,-245,245,255,255,145,-155,155,155,270,280,-292.5,280,690,13,SBD,Raw,
Lukas Poehlmann,Austria,M,1996,26,Open,83,82.1,217.5,232.5,242.5,242.5,127.5,137.5,-142.5,137.5,280,300,-310,300,680,14,SBD,Raw,
Jonas Larsen,Denmark,M,1990,32,Open,83,81.48,230,242.5,250,250,145,150,155,155,250,270,-285,270,675,15,SBD,Raw,
Roland Desjatski,Estonia,M,1988,34,Open,83,81.34,215,225,-230,225,122.5,127.5,-132.5,127.5,290,305,-315,305,657.5,16,SBD,Raw,
Vicevic William,Croatia,M,1992,30,Open,83,82.96,210,225,230,230,152.5,162.5,165,165,242.5,257.5,262.5,262.5,657.5,17,SBD,Raw,
Sven Sigrist,Switzerland,M,1988,34,Open,83,81.75,220,235,-245,235,140,145,152.5,152.5,240,255,262.5,262.5,650,18,SBD,Raw,
Szilárd Zmák,Hungary,M,1993,29,Open,83,82.29,202.5,215,-225,215,-142.5,147.5,-155,147.5,260,277.5,282.5,282.5,645,19,SBD,Raw,
Roman Malo,Belgium,M,1996,26,Open,83,82.63,217.5,-230,-230,217.5,110,120,130,130,240,260,-275,260,607.5,20,SBD,Raw,
Owen Hubbard,UK,M,1992,30,Open,83,82.68,-262.5,-262.5,-262.5,,200,210,220,220,75,-225,-225,75,,DQ,SBD,Raw,
Sascha Stendebach,Germany,M,1991,31,Open,93,92.72,-262.5,-270,272.5,272.5,200,207.5,210,210,345,360,365,365,847.5,1,SBD,Raw,
Christian Ayandokun,UK,M,1991,31,Open,93,92.59,265,277.5,287.5,287.5,182.5,190,195,195,305,332.5,360,360,842.5,2,SBD,Raw,
Gustav Hedlund,Sweden,M,1995,27,Open,93,92.48,-290,-295,300,300,195,207.5,215,215,325,-340,-340,325,840,3,SBD,Raw,
Rubén Fuentes Medina,Spain,M,1995,27,Open,93,91.53,285,302.5,307.5,307.5,175,182.5,185,185,290,302.5,310,310,802.5,4,SBD,Raw,
Robin Larsson,Sweden,M,1995,27,Open,93,92.15,280,290,302.5,302.5,177.5,185,190,190,290,302.5,307.5,307.5,800,5,SBD,Raw,
Marc Rius Pecanins,Spain,M,1997,25,Open,93,92.05,257.5,270,275,275,167.5,172.5,-177.5,172.5,325,345,-357.5,345,792.5,6,SBD,Raw,
René Hofer,Austria,M,1997,25,Open,93,92.85,272.5,285,290,290,162.5,170,175,175,305,320,-332.5,320,785,7,SBD,Raw,
Thomas Jost,Austria,M,1992,30,Open,93,92.31,260,272.5,282.5,282.5,175,180,185,185,290,302.5,310,310,777.5,8,SBD,Raw,
Cian Madden,Ireland,M,1995,27,Open,93,92.86,270,285,295,295,165,175,180,180,280,300,-312.5,300,775,9,SBD,Raw,
Mikko Muttonen,Finland,M,1987,35,Open,93,92.9,275,285,292.5,292.5,170,180,-185,180,300,-320,-327.5,300,772.5,10,SBD,Raw,
Michał Pacwa,Poland,M,1997,25,Open,93,91.88,255,-265,-265,255,175,185,192.5,192.5,295,305,315,315,762.5,11,SBD,Raw,
Eligijus Greiviskis,Lithuania,M,1996,26,Open,93,91.27,265,280,-292.5,280,185,-195,195,195,275,285,-300,285,760,12,SBD,Raw,
Carlo Calabrese,Italy,M,1993,29,Open,93,92.55,-265,-270,270,270,130,135,137.5,137.5,330,352.5,-374,352.5,760,13,SBD,Raw,
Willem van der Wal,Netherlands,M,1991,31,Open,93,89.65,230,255,-267.5,255,167.5,177.5,182.5,182.5,285,312.5,-327.5,312.5,750,14,SBD,Raw,
Matthew Henry #1,Ireland,M,1994,28,Open,93,92.63,265,287.5,-300,287.5,157.5,162.5,165,165,265,282.5,290,290,742.5,15,SBD,Raw,
Trygve Sletten,Norway,M,1993,29,Open,93,87.56,255,265,-270,265,165,-172.5,175,175,300,-315,-315,300,740,16,SBD,Raw,
Daniel Emil Ussing,Denmark,M,1995,27,Open,93,89.35,240,252.5,257.5,257.5,160,167.5,172.5,172.5,280,297.5,305,305,735,17,SBD,Raw,
P.nagy Balint,Hungary,M,1994,28,Open,93,92.8,245,257.5,-265,257.5,-175,175,182.5,182.5,270,282.5,-287.5,282.5,722.5,18,SBD,Raw,
Anders Joakim Halland,Norway,M,1992,30,Open,93,91.63,250,270,280,280,150,160,-165,160,260,275,-285,275,715,19,SBD,Raw,
Matej Grilc,Slovenia,M,1996,26,Open,93,91.3,225,235,240,240,175,182.5,-185,182.5,260,275,-285,275,697.5,20,SBD,Raw,
Kyriakos Michail,Cyprus,M,1997,25,Open,93,91.28,245,260,270,270,145,155,162.5,162.5,245,260,-275,260,692.5,21,SBD,Raw,
Oskars Paeglekalns,Latvia,M,1992,30,Open,93,92.3,232.5,-242.5,-242.5,232.5,162.5,170,175,175,280,-292.5,-292.5,280,687.5,22,SBD,Raw,
Zavesicki Richard,Hungary,M,1993,29,Open,93,91.53,225,240,-252.5,240,145,155,-162.5,155,250,270,285,285,680,23,SBD,Raw,
Emil Krastev,Bulgaria,M,1997,25,Open,93,92.16,-275,-282.5,-282.5,,210,220,-230,220,,,,,,DQ,SBD,Raw,
Emil Norling,Sweden,M,1996,26,Open,105,104.7,320,330,-335,330,-200,200,205,205,345,362.5,372.5,372.5,907.5,1,SBD,Raw,
Anatolii Novopismennyi,Ukraine,M,1996,26,Open,105,102.78,335,350,-360.5,350,207.5,215,-220,215,330,340,-350,340,905,2,SBD,Raw,
Corentin Clément,France,M,2000,22,Open,105,104.35,305,325,332.5,332.5,200,205,-210,205,342.5,357.5,,357.5,895,3,SBD,Raw,
Abdul Majeed Sulayman,UK,M,1997,25,Open,105,104.4,290,310,325,325,195,-202.5,-202.5,195,335,365,-387.5,365,885,4,SBD,Raw,
Ben Pape,UK,M,1996,26,Open,105,104.49,302.5,320,325,325,182.5,190,-192.5,190,325,345,360,360,875,5,SBD,Raw,
Toni Johannesen Amengual,Norway,M,1992,30,Open,105,104.43,280,295,302.5,302.5,190,202.5,205,205,315,332.5,-350,332.5,840,6,SBD,Raw,
Dami Fashoranti,Ireland,M,1998,24,Open,105,104.76,265,-285,285,285,175,182.5,187.5,187.5,320,345,-362.5,345,817.5,7,SBD,Raw,
Aron Hegedus,Hungary,M,1996,26,Open,105,103.85,260,282.5,-295,282.5,165,175,-177.5,175,290,322.5,337.5,337.5,795,8,SBD,Raw,
Joel Immanuel Vikesland,Norway,M,1997,25,Open,105,104.55,255,-270,-275,255,182.5,190,-200,190,305,330,350,350,795,9,SBD,Raw,
Youssuf El Adlani,Italy,M,1996,26,Open,105,101.8,280,295,-302.5,295,165,172.5,177.5,177.5,290,320,-340,320,792.5,10,SBD,Raw,
Risto Hatulainen,Finland,M,1988,34,Open,105,104.48,275,-290,290,290,175,180,-185,180,300,320,-345,320,790,11,SBD,Raw,
Viktor Samúelsson,Iceland,M,1993,29,Open,105,103.55,265,275,280,280,190,200,-205,200,300,-312.5,-320,300,780,12,SBD,Raw,
Paul Egger,Austria,M,1998,24,Open,105,102.83,260,275,285,285,150,157.5,160,160,300,320,332.5,332.5,777.5,13,SBD,Raw,
Jakub Vágner,Czechia,M,1997,25,Open,105,102.63,280,290,300,300,167.5,175,-180,175,280,295,300,300,775,14,SBD,Raw,
Jens Kirkegaard Jakobsen,Denmark,M,1993,29,Open,105,103.9,252.5,267.5,275,275,165,175,-177.5,175,295,312.5,322.5,322.5,772.5,15,SBD,Raw,
Joël Vanhevel,Belgium,M,1989,33,Open,105,102.57,255,-270,275,275,175,182.5,190,190,265,280,290,290,755,16,SBD,Raw,
Uros Pihler,Slovenia,M,1996,26,Open,105,104.51,257.5,272.5,280,280,145,155,-157.5,155,305,320,-332.5,320,755,17,SBD,Raw,
Erik Mata,Hungary,M,1996,26,Open,105,104.49,265,290,-300,290,175,187.5,-192.5,187.5,275,-300,-305,275,752.5,18,SBD,Raw,
Janne Marttila,Finland,M,1995,27,Open,105,104.12,280,-287.5,-287.5,280,145,157.5,162.5,162.5,270,295,-305,295,737.5,19,SBD,Raw,
Gordan Klasić,Croatia,M,1996,26,Open,105,99.52,-237.5,237.5,245,245,167.5,172.5,175,175,295,310,-317.5,310,730,20,SBD,Raw,
Roman Salaba,Czechia,M,1993,29,Open,105,103.2,255,-265,265,265,155,162.5,-170,162.5,290,-300,,290,717.5,21,SBD,Raw,
Mirko Bozic,Serbia,M,1995,27,Open,105,104.42,225,235,-240,235,165,170,172.5,172.5,290,310,-317.5,310,717.5,22,SBD,Raw,
Alexandros Kinanis,Cyprus,M,1994,28,Open,105,102.97,245,-260,260,260,155,165,-170,165,270,290,-300,290,715,23,SBD,Raw,
Jasper Vermeire,Belgium,M,1996,26,Open,105,96.31,-260,260,272.5,272.5,160,-170,-170,160,280,-295,-295,280,712.5,24,SBD,Raw,
Arif Atalay Özdemir,Turkey,M,1998,24,Open,105,102.77,230,-245,-252.5,230,-140,140,145,145,235,250,260,260,635,25,SBD,Raw,
Kieran Gray,UK,M,1996,26,Open,120,119.99,310,330,340,340,210,222.5,-237.5,222.5,330,345,-360,345,907.5,1,SBD,Raw,
Nicolas Peyraud,France,M,1999,23,Open,120,108.14,305,320,325,325,210,212.5,215,215,325,342.5,355,355,895,2,SBD,Raw,
Mateusz Grzesik,Poland,M,1989,33,Open,120,119.5,302.5,312.5,317.5,317.5,210,215,220,220,340,352.5,-360,352.5,890,3,SBD,Raw,
Inderraj Singh Dhillon,UK,M,1991,31,Open,120,119.74,305,322.5,327.5,327.5,165,172.5,175,175,335,362.5,375.5,375.5,878,4,SBD,Raw,
Víctor Vázquez Hernández-Carrillo,Spain,M,1995,27,Open,120,119.07,305,317.5,-325,317.5,202.5,210,-212.5,210,320,337.5,-345,337.5,865,5,SBD,Raw,
Carl Petter Sommerseth,Norway,M,1985,37,Open,120,119.52,290,-300,-305,290,200,212.5,-217.5,212.5,320,342.5,357.5,357.5,860,6,SBD,Raw,
Antti Kriikkula,Finland,M,1991,31,Open,120,119.61,300,-317.5,322.5,322.5,-210,217.5,222.5,222.5,290,307.5,-322.5,307.5,852.5,7,SBD,Raw,
Jens Peter Smalbro,Denmark,M,1994,28,Open,120,119.29,285,300,317.5,317.5,170,177.5,185,185,315,327.5,340,340,842.5,8,SBD,Raw,
Siim Salin,Estonia,M,1995,27,Open,120,118.19,285,-300,305,305,185,190,-195,190,310,330,,330,825,9,SBD,Raw,
Michael Leitner,Austria,M,1994,28,Open,120,113.87,270,285,-300,285,185,195,200,200,300,320,325,325,810,10,SBD,Raw,
Friedrich von Hennig,Germany,M,1992,30,Open,120,110.38,-285,295,-300,295,170,177.5,180,180,-325,-330,330,330,805,11,SBD,Raw,
Torben Stroemsvik,Norway,M,1992,30,Open,120,110.16,250,265,270,270,195,202.5,207.5,207.5,300,315,325,325,802.5,12,SBD,Raw,
Francesco Pelizza,Italy,M,1986,36,Open,120,119.75,270,280,-285,280,190,200,-202.5,200,315,-330,-330,315,795,13,SBD,Raw,
Władysław Żuk,Poland,M,1992,30,Open,120,119.99,270,277.5,-282.5,277.5,195,202.5,-207.5,202.5,275,290,300,300,780,14,SBD,Raw,
Rubeni Karkusashvili,Georgia,M,1979,43,Open,120,114.21,260,280,-285,280,-185,192.5,-200,192.5,-300,300,-315,300,772.5,15,SBD,Raw,
Tadej Kovačič,Slovenia,M,1992,30,Open,120,119.16,277.5,292.5,300,300,150,157.5,-162.5,157.5,280,297.5,312.5,312.5,770,16,SBD,Raw,
Aron Friðrik Georgsson,Iceland,M,1989,33,Open,120,119.66,280,300,-310,300,180,192.5,-200,192.5,275,-287.5,-290,275,767.5,17,SBD,Raw,
Daniele Pola,Switzerland,M,1997,25,Open,120,117.23,275,290,-305,290,170,180,190,190,260,275,-292.5,275,755,18,SBD,Raw,
Alican Açanal,Turkey,M,1997,25,Open,120,119.16,235,245,257.5,257.5,145,155,165,165,255,267.5,-277.5,267.5,690,19,SBD,Raw,
Cenk Koçak,Turkey,M,1996,26,Open,120+,139.67,320,340,350,350,225,235,242.5,242.5,370,387.5,-400,387.5,980,1,SBD,Raw,
Rubén Rico Martín,Spain,M,1984,38,Open,120+,199.6,365,380,-385,380,225,230,-235,230,320,-335,335,335,945,2,SBD,Raw,
Dmytro Vovk,Ukraine,M,1996,26,Open,120+,140.7,325,340,-355,340,230,242.5,250,250,310,330,340,340,930,3,SBD,Raw,
Sean Koch,Switzerland,M,2000,22,Open,120+,158.03,-360,360,-385,360,210,222.5,235,235,295,315,327.5,327.5,922.5,4,SBD,Raw,
Jari Saario,Finland,M,1985,37,Open,120+,146.01,340,-352.5,-352.5,340,-187.5,190,195,195,342.5,355,365,365,900,5,SBD,Raw,
Silviu Popsa,Romania,M,1985,37,Open,120+,142.55,280,300,312.5,312.5,225,-235,235,235,270,285,300,300,847.5,6,SBD,Raw,
Tadas Gečas,Lithuania,M,1977,45,Open,120+,143.78,297.5,-310,-310,297.5,-190,190,-192.5,190,320,340,-347.5,340,827.5,7,SBD,Raw,
Carlos Castillo San Segundo,Spain,M,1996,26,Open,120+,139.2,262.5,-285,-295,262.5,192.5,202.5,210,210,310,330,350,350,822.5,8,SBD,Raw,
Grzegorz Szklarz,Poland,M,1989,33,Open,120+,147.63,280,295,-300,295,225,-235,-235,225,280,300,-315,300,820,9,SBD,Raw,
Łukasz Nizio,Poland,M,1992,30,Open,120+,131.68,280,300,-310,300,190,200,205,205,290,310,-330,310,815,10,SBD,Raw,
Janis Ansmits,Latvia,M,1991,31,Open,120+,146.25,290,-300,,290,200,210,-215,210,315,-325,,315,815,11,SBD,Raw,
Steve Ringoot,Belgium,M,1989,33,Open,120+,148.04,-325,-325,-325,,,,,,,,,,,DQ,SBD,Raw,
Radosław Rogala,Poland,M,2007,15,Sub-Juniors,53,52.5,100,110,-117.5,110,-60,-60,60,60,105,115,130,130,300,1,SBD,Raw,
Dmytro Butenko,Ukraine,M,2005,17,Sub-Juniors,59,58.24,-170,-170,180,180,92.5,95,97.5,97.5,185,192.5,197.5,197.5,475,1,SBD,Raw,
Jakub Bońkowski,Poland,M,2004,18,Sub-Juniors,59,58.71,155,162.5,-167.5,162.5,72.5,77.5,80,80,210,-222.5,-235,210,452.5,2,SBD,Raw,
Edward Butcher,UK,M,2006,16,Sub-Juniors,59,58.51,145,157.5,162.5,162.5,87.5,92.5,95,95,165,177.5,182.5,182.5,440,3,SBD,Raw,
Alfie Bonsell,UK,M,2007,15,Sub-Juniors,59,57.42,142.5,152.5,-160,152.5,82.5,90,95,95,170,180,-192.5,180,427.5,4,SBD,Raw,
Kaloyan Panayotov,Bulgaria,M,2008,14,Sub-Juniors,59,59,25,,,25,,,,,,,,,,DQ,SBD,Raw,
Alessandro Pastorello,Italy,M,2004,18,Sub-Juniors,66,65.95,210,-218,-218,210,125,130,-135,130,246.5,256,-266,256,596,1,SBD,Raw,
Cristian Verdugo Beltran,Spain,M,2005,17,Sub-Juniors,66,65.96,-182.5,187.5,195,195,117.5,122.5,-125,122.5,217.5,227.5,230,230,547.5,2,SBD,Raw,
Maksym Pryshliak,Poland,M,2004,18,Sub-Juniors,66,65.34,175,185,-190,185,120,127.5,132.5,132.5,190,200,-207.5,200,517.5,3,SBD,Raw,
Emre-Can Duran,Belgium,M,2004,18,Sub-Juniors,66,65.61,177.5,187.5,-192.5,187.5,100,105,107.5,107.5,205,215,-225,215,510,4,SBD,Raw,
Kobe De Win,Belgium,M,2004,18,Sub-Juniors,66,65.34,155,165,-170,165,90,95,,95,207.5,217.5,227.5,227.5,487.5,5,SBD,Raw,
Matyas Gruszka,Czechia,M,2004,18,Sub-Juniors,66,65.27,160,170,175,175,110,117.5,-122.5,117.5,170,190,-200,190,482.5,6,SBD,Raw,
Jan Gazur,Czechia,M,2004,18,Sub-Juniors,66,65.21,150,165,170,170,100,110,-112.5,110,180,200,-225,200,480,7,SBD,Raw,
Jack Whitaker,UK,M,2005,17,Sub-Juniors,66,63.36,145,150,152.5,152.5,95,100,-105,100,190,197.5,-205,197.5,450,8,SBD,Raw,
Alessandro Barbero #1,Italy,M,2004,18,Sub-Juniors,74,73.69,215,225,233,233,122.5,127.5,-132.5,127.5,257.5,272.5,-288,272.5,633,1,SBD,Raw,
Šimon Falta,Czechia,M,2004,18,Sub-Juniors,74,73.84,207.5,217.5,225,225,122.5,-130,130,130,227.5,235,245,245,600,2,SBD,Raw,
Staš Oražem,Slovenia,M,2004,18,Sub-Juniors,74,73.2,200,212.5,220,220,135,140,142.5,142.5,212.5,225,235,235,597.5,3,SBD,Raw,
Kristian Velkov,Bulgaria,M,2005,17,Sub-Juniors,74,73.56,207.5,217.5,220,220,130,140,-147.5,140,230,235,-242.5,235,595,4,SBD,Raw,
Simon Zhu #1,UK,M,2004,18,Sub-Juniors,74,73.72,190,200,-205,200,127.5,132.5,135,135,212.5,225,-232.5,225,560,5,SBD,Raw,
Vladyslav Bilous,Ukraine,M,2006,16,Sub-Juniors,74,73.02,220,-225,-225,220,117.5,-120,-120,117.5,200,215,-232.5,215,552.5,6,SBD,Raw,
Michał Mizia,Poland,M,2005,17,Sub-Juniors,74,73.46,-167.5,167.5,175,175,137.5,145,-150,145,220,230,-235,230,550,7,SBD,Raw,
J. Sebastian Perez Ramirez,Spain,M,2004,18,Sub-Juniors,74,73.99,180,-192.5,-192.5,180,115,120,-122.5,120,210,227.5,-237.5,227.5,527.5,8,SBD,Raw,
Kyan Vandeweyer,Belgium,M,2004,18,Sub-Juniors,74,72.72,185,195,202.5,202.5,95,100,-102.5,100,220,-232.5,-235,220,522.5,9,SBD,Raw,
Sacha Urbanczyk,Belgium,M,2004,18,Sub-Juniors,74,73.65,170,180,187.5,187.5,107.5,-112.5,-117.5,107.5,210,220,-230,220,515,10,SBD,Raw,
Jachym Kubin,Czechia,M,2007,15,Sub-Juniors,74,72.63,145,150,160,160,97.5,105,-107.5,105,180,190,192.5,192.5,457.5,11,SBD,Raw,
Álvaro Baquedano Briones,Spain,M,2004,18,Sub-Juniors,74,72.51,210,-217.5,-220,210,-100,-100,-100,,190,200,-210,200,,DQ,SBD,Raw,
Jakub Bellak,Slovakia,M,2006,16,Sub-Juniors,74,73.73,-200,-200,-210,,115,122.5,-127.5,122.5,235,245,-250,245,,DQ,SBD,Raw,
Thomas McCarthy #4,Ireland,M,2004,18,Sub-Juniors,83,82.55,230,245,250,250,120,125,-127.5,125,260,275,288,288,663,1,SBD,Raw,
Viktor Hubáček,Czechia,M,2004,18,Sub-Juniors,83,82.94,197.5,207.5,215,215,142.5,150,157.5,157.5,257.5,-272.5,272.5,272.5,645,2,SBD,Raw,
Damian Rusek,Poland,M,2004,18,Sub-Juniors,83,79.92,207.5,215,220,220,115,120,125,125,-275,287.5,289,289,634,3,SBD,Raw,
Filip Gardian,Slovakia,M,2005,17,Sub-Juniors,83,82.75,212.5,217.5,222.5,222.5,137.5,-145,-145,137.5,240,250,-270,250,610,4,SBD,Raw,
James West #3,UK,M,2004,18,Sub-Juniors,83,81.93,205,217.5,-225,217.5,120,125,127.5,127.5,252.5,260,-272.5,260,605,5,SBD,Raw,
Joshua Voeten,Netherlands,M,2004,18,Sub-Juniors,83,82.86,200,212.5,-220,212.5,127.5,132.5,-135,132.5,230,245,255,255,600,6,SBD,Raw,
Jorel Omandam,Netherlands,M,2004,18,Sub-Juniors,83,81.04,175,-182.5,182.5,182.5,112.5,117.5,122.5,122.5,230,240,-252.5,240,545,7,SBD,Raw,
Mintaras Kačinskas,Lithuania,M,2004,18,Sub-Juniors,83,82.54,170,180,-185,180,110,115,122.5,122.5,225,-235,,225,527.5,8,SBD,Raw,
Magnus Mangusson,Estonia,M,2004,18,Sub-Juniors,83,79.66,180,-187.5,-187.5,180,115,120,-132.5,120,205,-215,-215,205,505,9,SBD,Raw,
Malik Bernoussi Triolet,France,M,2004,18,Sub-Juniors,93,90.15,272.5,280,-282.5,280,192.5,202.5,210,210,285,302.5,310.5,310.5,800.5,1,SBD,Raw,
Jordi van Heijningen,Netherlands,M,2005,17,Sub-Juniors,93,92.87,240,257.5,275,275,167.5,172.5,-175,172.5,270,282.5,287.5,287.5,735,2,SBD,Raw,
Julian Wilson,UK,M,2004,18,Sub-Juniors,93,92.91,215,225,232.5,232.5,137.5,142.5,-145,142.5,262.5,-275,275,275,650,3,SBD,Raw,
Adrian Turiak,Slovakia,M,2004,18,Sub-Juniors,93,92.66,215,230,235,235,140,-150,-150,140,235,250,262.5,262.5,637.5,4,SBD,Raw,
Kenji Borremans,Belgium,M,2005,17,Sub-Juniors,93,91.97,215,225,-232.5,225,155,160,-162.5,160,230,245,-252.5,245,630,5,SBD,Raw,
Adam Zatloukal,Czechia,M,2005,17,Sub-Juniors,93,92.78,210,222.5,230,230,120,125,-127.5,125,235,247.5,-255,247.5,602.5,6,SBD,Raw,
Robert Lynch #3,Ireland,M,2004,18,Sub-Juniors,93,90.02,202.5,-215,215,215,117.5,122.5,130,130,245,255,-265,255,600,7,SBD,Raw,
Benjamin Hostettler,Switzerland,M,2004,18,Sub-Juniors,93,91.63,205,217.5,227.5,227.5,117.5,-125,-125,117.5,210,222.5,230,230,575,8,SBD,Raw,
Martis Muuli,Estonia,M,2004,18,Sub-Juniors,93,92.74,180,190,-197.5,190,100,-107.5,107.5,107.5,180,195,205,205,502.5,9,SBD,Raw,
Hamza Demir,Austria,M,2005,17,Sub-Juniors,105,103.58,250,-265,270,270,170,180,185,185,290,310,320,320,775,1,SBD,Raw,
Susa Oliver,Hungary,M,2004,18,Sub-Juniors,105,104.61,260,280,-300.5,280,202.5,211,214,214,260,280,-285,280,774,2,SBD,Raw,
Markus Maja,Finland,M,2004,18,Sub-Juniors,105,104.73,242.5,252.5,257.5,257.5,155,165,170,170,245,255,260,260,687.5,3,SBD,Raw,
Reinhard Rebane,Estonia,M,2005,17,Sub-Juniors,105,100.44,232.5,-247.5,-247.5,232.5,125,132.5,,132.5,-295,305,-330.5,305,670,4,SBD,Raw,
Branislav Vanga,Slovakia,M,2005,17,Sub-Juniors,105,103.91,-230,230,240,240,-145,150,155,155,260,272.5,-285,272.5,667.5,5,SBD,Raw,
Filip Pawlak,Poland,M,2004,18,Sub-Juniors,105,102.76,210,220,230,230,135,145,147.5,147.5,247.5,267.5,287.5,287.5,665,6,SBD,Raw,
Naoise Walsh,Ireland,M,2004,18,Sub-Juniors,105,104.97,220,230,-235,230,117.5,125,130,130,255,275,287.5,287.5,647.5,7,SBD,Raw,
Lazar Kandić,Serbia,M,2004,18,Sub-Juniors,105,103.52,-200,200,215,215,-140,140,147.5,147.5,230,245,252.5,252.5,615,8,SBD,Raw,
Cedric Van Beek,Belgium,M,2004,18,Sub-Juniors,105,104.9,222.5,232.5,240,240,120,-125,125,125,235,250,-260,250,615,9,SBD,Raw,
Luuk Eijkelberg,Netherlands,M,2004,18,Sub-Juniors,105,102.95,200,210,-220,210,130,135,140,140,235,245,257.5,257.5,607.5,10,SBD,Raw,
Axel Isberg,Sweden,M,2004,18,Sub-Juniors,120,119.97,280,295,308,308,150,157.5,162.5,162.5,287.5,307.5,320,320,790.5,1,SBD,Raw,
Ivan Georgiev,Bulgaria,M,2004,18,Sub-Juniors,120,116.13,235,250,-260,250,195,205,-210.5,205,285,305,-323,305,760,2,SBD,Raw,
Stepan Knap,Czechia,M,2004,18,Sub-Juniors,120,118.51,230,245,255,255,170,-182.5,-182.5,170,282.5,292.5,-302.5,292.5,717.5,3,SBD,Raw,
Samuel Svartsjö,Finland,M,2004,18,Sub-Juniors,120,114.72,260,-270,-270,260,155,-162.5,162.5,162.5,275,285,-295,285,707.5,4,SBD,Raw,
Drew Brooks,UK,M,2005,17,Sub-Juniors,120,118.72,215,225,235,235,125,130,135,135,235,250,260,260,630,5,SBD,Raw,
Carl Henrik Ted Erik Hogstrom,Estonia,M,2004,18,Sub-Juniors,120,113.97,215,-230,-230,215,-137.5,-137.5,137.5,137.5,225,240,-250,240,592.5,6,SBD,Raw,
Dominik Słoma,Poland,M,2004,18,Sub-Juniors,120,112.32,210,220,230,230,95,-100,-100,95,220,235,-250,235,560,7,SBD,Raw,
Neilas Pinskas,Lithuania,M,2004,18,Sub-Juniors,120,111.05,190,200,-215,200,90,100,-107.5,100,-195,195,215,215,515,8,SBD,Raw,
Phillip Nikolic,Austria,M,2004,18,Sub-Juniors,120+,134.58,260,275,290,290,170,182.5,-185,182.5,245,265,275,275,747.5,1,SBD,Raw,
Róbert Guðbrandsson,Iceland,M,2004,18,Sub-Juniors,120+,128.9,207.5,227.5,240,240,145,157.5,160,160,220,240,252.5,252.5,652.5,2,SBD,Raw,
Louis Parry,UK,M,2004,18,Sub-Juniors,120+,124.65,225,232.5,235,235,155,160,-165,160,-255,255,-257.5,255,650,3,SBD,Raw,
Odysseas Markou,Greece,M,2007,15,Sub-Juniors,120+,123.47,-220,230,240,240,102.5,-112.5,-120,102.5,225,232.5,240,240,582.5,4,SBD,Raw,
Jan Tuszyński,Poland,M,2006,16,Sub-Juniors,120+,124,180,200,215,215,95,105,-110,105,200,225,242.5,242.5,562.5,5,SBD,Raw,
Oskar Kołnacki,Poland,M,2004,18,Sub-Juniors,120+,143.7,190,205,215,215,105,115,-120,115,185,-202.5,202.5,202.5,532.5,6,SBD,Raw,
